\babel@toc {brazilian}{}
\contentsline {section}{\numberline {1}Introdu\IeC {\c c}ao}{2}
\contentsline {section}{\numberline {2}Projeto da fonte}{3}
\contentsline {subsection}{\numberline {2.1}Circuito retificador}{3}
\contentsline {subsection}{\numberline {2.2}Regula\IeC {\c c}\IeC {\~a}o de tens\IeC {\~a}o}{4}
\contentsline {subsection}{\numberline {2.3}Refer\IeC {\^e}ncia de tens\IeC {\~a}o}{5}
\contentsline {subsection}{\numberline {2.4}Limita\IeC {\c c}\IeC {\~a}o de corrente}{6}
\contentsline {section}{\numberline {3}Resulados de simula\IeC {\c c}\IeC {\~a}o}{7}
\contentsline {section}{\numberline {4}Montagem do circuito}{9}
\contentsline {section}{\numberline {5}Resultados de laborat\IeC {\'o}rio}{9}
\contentsline {section}{\numberline {6}Considera\IeC {\c c}\IeC {\~o}es finais}{11}
\contentsline {section}{\numberline {7}Refer\IeC {\^e}ncias}{12}
