Info: Starting: Create block symbol file (.bsf)
Info: qsys-generate "/home/benitez/Documents/engineering-knowledge-management/01 - Specific Subjects/02 - Eletrônica Digital/03 - VHDL/04 - Práticas e projetos - VHDL/Experimento 3.12 - Síntese multiplicador 8x8/probes.qsys" --block-symbol-file --output-directory="/home/benitez/Documents/engineering-knowledge-management/01 - Specific Subjects/02 - Eletrônica Digital/03 - VHDL/04 - Práticas e projetos - VHDL/Experimento 3.12 - Síntese multiplicador 8x8/probes" --family="MAX 10" --part=10M50DAF484C7G
Progress: Loading Experimento 3.12 - Síntese multiplicador 8x8/probes.qsys
Progress: Reading input file
Progress: Adding in_system_sources_probes_0 [altera_in_system_sources_probes 20.1]
Progress: Parameterizing module in_system_sources_probes_0
Progress: Building connections
Progress: Parameterizing connections
Progress: Validating
Progress: Done reading input file
Info: qsys-generate succeeded.
Info: Finished: Create block symbol file (.bsf)
Info: 
Info: Starting: Create HDL design files for synthesis
Info: qsys-generate "/home/benitez/Documents/engineering-knowledge-management/01 - Specific Subjects/02 - Eletrônica Digital/03 - VHDL/04 - Práticas e projetos - VHDL/Experimento 3.12 - Síntese multiplicador 8x8/probes.qsys" --synthesis=VERILOG --output-directory="/home/benitez/Documents/engineering-knowledge-management/01 - Specific Subjects/02 - Eletrônica Digital/03 - VHDL/04 - Práticas e projetos - VHDL/Experimento 3.12 - Síntese multiplicador 8x8/probes/synthesis" --family="MAX 10" --part=10M50DAF484C7G
Progress: Loading Experimento 3.12 - Síntese multiplicador 8x8/probes.qsys
Progress: Reading input file
Progress: Adding in_system_sources_probes_0 [altera_in_system_sources_probes 20.1]
Progress: Parameterizing module in_system_sources_probes_0
Progress: Building connections
Progress: Parameterizing connections
Progress: Validating
Progress: Done reading input file
Info: probes: Generating probes "probes" for QUARTUS_SYNTH
Info: in_system_sources_probes_0: "probes" instantiated altera_in_system_sources_probes "in_system_sources_probes_0"
Info: probes: Done "probes" with 2 modules, 2 files
Info: qsys-generate succeeded.
Info: Finished: Create HDL design files for synthesis
