Version 4
SHEET 1 880 680
WIRE 160 48 16 48
WIRE 368 48 160 48
WIRE 16 96 16 48
WIRE 368 128 368 48
WIRE 112 176 16 176
WIRE 224 176 160 176
WIRE 112 208 112 176
WIRE 224 224 224 176
WIRE 224 224 160 224
WIRE 16 304 16 256
WIRE 96 304 16 304
WIRE 160 304 96 304
WIRE 368 304 368 208
WIRE 368 304 160 304
FLAG 96 304 0
SYMBOL Hef4000\\Hef4007n 112 128 R0
SYMATTR InstName U1
SYMBOL res 144 32 R0
SYMATTR InstName R1
SYMATTR Value 2000
SYMBOL res 144 208 R0
SYMATTR InstName R2
SYMATTR Value 1000
SYMBOL res 0 80 R0
SYMATTR InstName R3
SYMATTR Value 47k
SYMBOL res 0 160 R0
SYMATTR InstName R4
SYMATTR Value 47k
SYMBOL voltage 368 112 R0
WINDOW 123 0 0 Left 0
WINDOW 39 0 0 Left 0
SYMATTR InstName V1
SYMATTR Value 7
TEXT -2 328 Left 2 !.tran 100m
