1) Demonstração
2) Demonstração
3) easy
4)
	a) easy
	b) 
	c) 
	d) easy
	e)
	f) easy 
5) easy
6)
	a)easy
	b)easy
	d)media
7)transoformada inversa
	a) easy
	b)
	c)
	d)
	e) easy
8) Teoremas de translação ####
	a)
	b)
	c)	
	d) easy
	e) easy
	f) media 
	g) easy
	h)
	i)
9) periodicidade
	a) easy
	b)
	c)
	d) media
	e)
10)
	a) easy
	c) media (errei a derivada)
11)
	a) easy
	b)	
	c) feita em sala


------------------------

PARTE 2
a) easy
b) quase...
c) easy. Terceira ordem
d) easy. Trabalhosa pra caralho!!!!
e) media
f)
g) easy (porem confusa, pois sao muita propriedades envolvidas)
h) quase
i)

