Added Component: Designator=TP1(TEST_POINT_PTH)
Add component. Clean all parameters for all variants
Added Component: Designator=TP2(TEST_POINT_PTH)
Add component. Clean all parameters for all variants
Added Component: Designator=TP3(TEST_POINT_PTH)
Add component. Clean all parameters for all variants
Added Component: Designator=TP4(TEST_POINT_PTH)
Add component. Clean all parameters for all variants
Added Component: Designator=TP5(TEST_POINT_PTH)
Add component. Clean all parameters for all variants
Added Pin To Net: NetName=NetJ1_2 Pin=TP1-1
Added Pin To Net: NetName=NetC12_2 Pin=TP2-1
Added Pin To Net: NetName=NetC17_2 Pin=TP3-1
Added Pin To Net: NetName=NetC36_2 Pin=TP4-1
Added Pin To Net: NetName=NetC37_2 Pin=TP5-1
Added Member To Class: ClassName=Esquemático Member=Component TP1 TestPoint
Added Member To Class: ClassName=Esquemático Member=Component TP2 TestPoint
Added Member To Class: ClassName=Esquemático Member=Component TP3 TestPoint
Added Member To Class: ClassName=Esquemático Member=Component TP4 TestPoint
Added Member To Class: ClassName=Esquemático Member=Component TP5 TestPoint
