Change Component Comment : Designator=1 Old Comment=Valor New Comment=50k
Change Component Designator: OldDesignator=1 NewDesignator=T1
Change Net Name : Old Net Name=Net1_1 New Net Name=NetR12_1
Change Net Name : Old Net Name=Net1_2 New Net Name=NetC8_1
Added Member To Class: ClassName=Esquemático Member=Component R1 Res1
Added Member To Class: ClassName=Esquemático Member=Component R2 Res1
Added Member To Class: ClassName=Esquemático Member=Component R12 Res1
