Change Component Comment : Designator=TP3 Old Comment=TestPoint New Comment=R1
Change Component Comment : Designator=TP4 Old Comment=TestPoint New Comment=R2
Change Component Comment : Designator=TP5 Old Comment=TestPoint New Comment=R3
