Record Length,2.500000e+03,,   0.020800000000,   4.24000,
Sample Interval,4.000000e-05,,   0.020840000000,   4.24000,
Trigger Point,-5.200000000000e+02,,   0.020880000000,   4.24000,
,,,   0.020920000000,   4.24000,
,,,   0.020960000000,   4.28000,
,,,   0.021000000000,   4.28000,
Source,CH1,,   0.021040000000,   4.28000,
Vertical Units,V,,   0.021080000000,   4.28000,
Vertical Scale,1.000000e+00,,   0.021120000000,   4.28000,
Vertical Offset,-2.920000e+00,,   0.021160000000,   4.28000,
Horizontal Units,s,,   0.021200000000,   4.28000,
Horizontal Scale,1.000000e-02,,   0.021240000000,   4.32000,
Pt Fmt,Y,,   0.021280000000,   4.28000,
Yzero,0.000000e+00,,   0.021320000000,   4.32000,
Probe Atten,1.000000e+01,,   0.021360000000,   4.32000,
Model Number,TDS1001C-EDU,,   0.021400000000,   4.32000,
Serial Number,C010384,,   0.021440000000,   4.32000,
Firmware Version,FV:v25.04,,   0.021480000000,   4.32000,
,,,0.021520000000,   4.32000,
,,,0.021560000000,   4.32000,
,,,0.021600000000,   4.32000,
,,,0.021640000000,   4.36000,
,,,0.021680000000,   4.36000,
,,,0.021720000000,   4.36000,
,,,0.021760000000,   4.36000,
,,,0.021800000000,   4.36000,
,,,0.021840000000,   4.36000,
,,,0.021880000000,   4.36000,
,,,0.021920000000,   4.36000,
,,,0.021960000000,   4.36000,
,,,0.022000000000,   4.40000,
,,,0.022040000000,   4.40000,
,,,0.022080000000,   4.40000,
,,,0.022120000000,   4.40000,
,,,0.022160000000,   4.40000,
,,,0.022200000000,   4.40000,
,,,0.022240000000,   4.40000,
,,,0.022280000000,   4.40000,
,,,0.022320000000,   4.44000,
,,,0.022360000000,   4.44000,
,,,0.022400000000,   4.44000,
,,,0.022440000000,   4.44000,
,,,0.022480000000,   4.44000,
,,,0.022520000000,   4.44000,
,,,0.022560000000,   4.44000,
,,,0.022600000000,   4.48000,
,,,0.022640000000,   4.48000,
,,,0.022680000000,   4.48000,
,,,0.022720000000,   4.44000,
,,,0.022760000000,   4.48000,
,,,0.022800000000,   4.48000,
,,,0.022840000000,   4.48000,
,,,0.022880000000,   4.48000,
,,,0.022920000000,   4.48000,
,,,0.022960000000,   4.48000,
,,,0.023000000000,   4.48000,
,,,0.023040000000,   4.48000,
,,,0.023080000000,   4.48000,
,,,0.023120000000,   4.52000,
,,,0.023160000000,   4.48000,
,,,0.023200000000,   4.52000,
,,,0.023240000000,   4.48000,
,,,0.023280000000,   4.52000,
,,,0.023320000000,   4.56000,
,,,0.023360000000,   4.52000,
,,,0.023400000000,   4.52000,
,,,0.023440000000,   4.52000,
,,,0.023480000000,   4.52000,
,,,0.023520000000,   4.52000,
,,,0.023560000000,   4.56000,
,,,0.023600000000,   4.56000,
,,,0.023640000000,   4.56000,
,,,0.023680000000,   4.56000,
,,,0.023720000000,   4.56000,
,,,0.023760000000,   4.60000,
,,,0.023800000000,   4.56000,
,,,0.023840000000,   4.60000,
,,,0.023880000000,   4.60000,
,,,0.023920000000,   4.60000,
,,,0.023960000000,   4.60000,
,,,0.024000000000,   4.60000,
,,,0.024040000000,   4.60000,
,,,0.024080000000,   4.60000,
,,,0.024120000000,   4.60000,
,,,0.024160000000,   4.60000,
,,,0.024200000000,   4.64000,
,,,0.024240000000,   4.60000,
,,,0.024280000000,   4.64000,
,,,0.024320000000,   4.64000,
,,,0.024360000000,   4.64000,
,,,0.024400000000,   4.64000,
,,,0.024440000000,   4.64000,
,,,0.024480000000,   4.64000,
,,,0.024520000000,   4.64000,
,,,0.024560000000,   4.64000,
,,,0.024600000000,   4.68000,
,,,0.024640000000,   4.68000,
,,,0.024680000000,   4.64000,
,,,0.024720000000,   4.68000,
,,,0.024760000000,   4.68000,
,,,0.024800000000,   4.68000,
,,,0.024840000000,   4.68000,
,,,0.024880000000,   4.72000,
,,,0.024920000000,   4.72000,
,,,0.024960000000,   4.72000,
,,,0.025000000000,   4.72000,
,,,0.025040000000,   4.72000,
,,,0.025080000000,   4.72000,
,,,0.025120000000,   4.72000,
,,,0.025160000000,   4.72000,
,,,0.025200000000,   4.72000,
,,,0.025240000000,   4.76000,
,,,0.025280000000,   4.76000,
,,,0.025320000000,   4.72000,
,,,0.025360000000,   4.76000,
,,,0.025400000000,   4.76000,
,,,0.025440000000,   4.76000,
,,,0.025480000000,   4.76000,
,,,0.025520000000,   4.76000,
,,,0.025560000000,   4.80000,
,,,0.025600000000,   4.80000,
,,,0.025640000000,   4.80000,
,,,0.025680000000,   4.80000,
,,,0.025720000000,   4.76000,
,,,0.025760000000,   4.80000,
,,,0.025800000000,   4.80000,
,,,0.025840000000,   4.80000,
,,,0.025880000000,   4.84000,
,,,0.025920000000,   4.80000,
,,,0.025960000000,   4.84000,
,,,0.026000000000,   4.84000,
,,,0.026040000000,   4.84000,
,,,0.026080000000,   4.84000,
,,,0.026120000000,   4.84000,
,,,0.026160000000,   4.84000,
,,,0.026200000000,   4.84000,
,,,0.026240000000,   4.88000,
,,,0.026280000000,   4.88000,
,,,0.026320000000,   4.84000,
,,,0.026360000000,   4.88000,
,,,0.026400000000,   4.88000,
,,,0.026440000000,   4.88000,
,,,0.026480000000,   4.88000,
,,,0.026520000000,   4.88000,
,,,0.026560000000,   4.88000,
,,,0.026600000000,   4.88000,
,,,0.026640000000,   4.88000,
,,,0.026680000000,   4.88000,
,,,0.026720000000,   4.88000,
,,,0.026760000000,   4.88000,
,,,0.026800000000,   4.88000,
,,,0.026840000000,   4.84000,
,,,0.026880000000,   4.84000,
,,,0.026920000000,   4.84000,
,,,0.026960000000,   4.84000,
,,,0.027000000000,   4.84000,
,,,0.027040000000,   4.84000,
,,,0.027080000000,   4.84000,
,,,0.027120000000,   4.80000,
,,,0.027160000000,   4.80000,
,,,0.027200000000,   4.80000,
,,,0.027240000000,   4.80000,
,,,0.027280000000,   4.80000,
,,,0.027320000000,   4.80000,
,,,0.027360000000,   4.80000,
,,,0.027400000000,   4.80000,
,,,0.027440000000,   4.80000,
,,,0.027480000000,   4.76000,
,,,0.027520000000,   4.76000,
,,,0.027560000000,   4.76000,
,,,0.027600000000,   4.76000,
,,,0.027640000000,   4.76000,
,,,0.027680000000,   4.76000,
,,,0.027720000000,   4.76000,
,,,0.027760000000,   4.76000,
,,,0.027800000000,   4.76000,
,,,0.027840000000,   4.72000,
,,,0.027880000000,   4.72000,
,,,0.027920000000,   4.72000,
,,,0.027960000000,   4.72000,
,,,0.028000000000,   4.72000,
,,,0.028040000000,   4.72000,
,,,0.028080000000,   4.72000,
,,,0.028120000000,   4.72000,
,,,0.028160000000,   4.68000,
,,,0.028200000000,   4.68000,
,,,0.028240000000,   4.68000,
,,,0.028280000000,   4.68000,
,,,0.028320000000,   4.68000,
,,,0.028360000000,   4.68000,
,,,0.028400000000,   4.64000,
,,,0.028440000000,   4.68000,
,,,0.028480000000,   4.64000,
,,,0.028520000000,   4.64000,
,,,0.028560000000,   4.64000,
,,,0.028600000000,   4.64000,
,,,0.028640000000,   4.64000,
,,,0.028680000000,   4.64000,
,,,0.028720000000,   4.64000,
,,,0.028760000000,   4.60000,
,,,0.028800000000,   4.64000,
,,,0.028840000000,   4.64000,
,,,0.028880000000,   4.60000,
,,,0.028920000000,   4.60000,
,,,0.028960000000,   4.60000,
,,,0.029000000000,   4.60000,
,,,0.029040000000,   4.60000,
,,,0.029080000000,   4.60000,
,,,0.029120000000,   4.60000,
,,,0.029160000000,   4.60000,
,,,0.029200000000,   4.60000,
,,,0.029240000000,   4.56000,
,,,0.029280000000,   4.60000,
,,,0.029320000000,   4.56000,
,,,0.029360000000,   4.56000,
,,,0.029400000000,   4.60000,
,,,0.029440000000,   4.56000,
,,,0.029480000000,   4.56000,
,,,0.029520000000,   4.56000,
,,,0.029560000000,   4.52000,
,,,0.029600000000,   4.56000,
,,,0.029640000000,   4.52000,
,,,0.029680000000,   4.52000,
,,,0.029720000000,   4.52000,
,,,0.029760000000,   4.52000,
,,,0.029800000000,   4.52000,
,,,0.029840000000,   4.48000,
,,,0.029880000000,   4.52000,
,,,0.029920000000,   4.48000,
,,,0.029960000000,   4.52000,
,,,0.030000000000,   4.48000,
,,,0.030040000000,   4.48000,
,,,0.030080000000,   4.48000,
,,,0.030120000000,   4.48000,
,,,0.030160000000,   4.48000,
,,,0.030200000000,   4.48000,
,,,0.030240000000,   4.48000,
,,,0.030280000000,   4.48000,
,,,0.030320000000,   4.48000,
,,,0.030360000000,   4.48000,
,,,0.030400000000,   4.48000,
,,,0.030440000000,   4.48000,
,,,0.030480000000,   4.48000,
,,,0.030520000000,   4.44000,
,,,0.030560000000,   4.48000,
,,,0.030600000000,   4.44000,
,,,0.030640000000,   4.44000,
,,,0.030680000000,   4.44000,
,,,0.030720000000,   4.44000,
,,,0.030760000000,   4.44000,
,,,0.030800000000,   4.44000,
,,,0.030840000000,   4.44000,
,,,0.030880000000,   4.40000,
,,,0.030920000000,   4.40000,
,,,0.030960000000,   4.40000,
,,,0.031000000000,   4.40000,
,,,0.031040000000,   4.40000,
,,,0.031080000000,   4.40000,
,,,0.031120000000,   4.40000,
,,,0.031160000000,   4.36000,
,,,0.031200000000,   4.36000,
,,,0.031240000000,   4.36000,
,,,0.031280000000,   4.36000,
,,,0.031320000000,   4.36000,
,,,0.031360000000,   4.36000,
,,,0.031400000000,   4.32000,
,,,0.031440000000,   4.36000,
,,,0.031480000000,   4.36000,
,,,0.031520000000,   4.32000,
,,,0.031560000000,   4.32000,
,,,0.031600000000,   4.32000,
,,,0.031640000000,   4.32000,
,,,0.031680000000,   4.32000,
,,,0.031720000000,   4.32000,
,,,0.031760000000,   4.32000,
,,,0.031800000000,   4.28000,
,,,0.031840000000,   4.32000,
,,,0.031880000000,   4.28000,
,,,0.031920000000,   4.32000,
,,,0.031960000000,   4.28000,
,,,0.032000000000,   4.28000,
,,,0.032040000000,   4.28000,
,,,0.032080000000,   4.28000,
,,,0.032120000000,   4.28000,
,,,0.032160000000,   4.28000,
,,,0.032200000000,   4.24000,
,,,0.032240000000,   4.24000,
,,,0.032280000000,   4.24000,
,,,0.032320000000,   4.24000,
,,,0.032360000000,   4.24000,
,,,0.032400000000,   4.24000,
,,,0.032440000000,   4.24000,
,,,0.032480000000,   4.24000,
,,,0.032520000000,   4.20000,
,,,0.032560000000,   4.24000,
,,,0.032600000000,   4.20000,
,,,0.032640000000,   4.20000,
,,,0.032680000000,   4.20000,
,,,0.032720000000,   4.20000,
,,,0.032760000000,   4.20000,
,,,0.032800000000,   4.16000,
,,,0.032840000000,   4.20000,
,,,0.032880000000,   4.20000,
,,,0.032920000000,   4.16000,
,,,0.032960000000,   4.16000,
,,,0.033000000000,   4.16000,
,,,0.033040000000,   4.16000,
,,,0.033080000000,   4.16000,
,,,0.033120000000,   4.16000,
,,,0.033160000000,   4.12000,
,,,0.033200000000,   4.12000,
,,,0.033240000000,   4.12000,
,,,0.033280000000,   4.12000,
,,,0.033320000000,   4.16000,
,,,0.033360000000,   4.12000,
,,,0.033400000000,   4.12000,
,,,0.033440000000,   4.12000,
,,,0.033480000000,   4.12000,
,,,0.033520000000,   4.12000,
,,,0.033560000000,   4.08000,
,,,0.033600000000,   4.12000,
,,,0.033640000000,   4.08000,
,,,0.033680000000,   4.08000,
,,,0.033720000000,   4.08000,
,,,0.033760000000,   4.08000,
,,,0.033800000000,   4.08000,
,,,0.033840000000,   4.04000,
,,,0.033880000000,   4.08000,
,,,0.033920000000,   4.08000,
,,,0.033960000000,   4.08000,
,,,0.034000000000,   4.08000,
,,,0.034040000000,   4.08000,
,,,0.034080000000,   4.04000,
,,,0.034120000000,   4.04000,
,,,0.034160000000,   4.04000,
,,,0.034200000000,   4.04000,
,,,0.034240000000,   4.04000,
,,,0.034280000000,   4.04000,
,,,0.034320000000,   4.04000,
,,,0.034360000000,   4.04000,
,,,0.034400000000,   4.00000,
,,,0.034440000000,   4.04000,
,,,0.034480000000,   4.00000,
,,,0.034520000000,   4.00000,
,,,0.034560000000,   4.00000,
,,,0.034600000000,   4.00000,
,,,0.034640000000,   4.00000,
,,,0.034680000000,   4.00000,
,,,0.034720000000,   4.00000,
,,,0.034760000000,   3.96000,
,,,0.034800000000,   3.96000,
,,,0.034840000000,   3.96000,
,,,0.034880000000,   3.96000,
,,,0.034920000000,   3.96000,
,,,0.034960000000,   3.96000,
,,,0.035000000000,   3.96000,
,,,0.035040000000,   3.96000,
,,,0.035080000000,   3.92000,
,,,0.035120000000,   3.92000,
,,,0.035160000000,   3.92000,
,,,0.035200000000,   3.96000,
,,,0.035240000000,   3.92000,
,,,0.035280000000,   3.92000,
,,,0.035320000000,   3.92000,
,,,0.035360000000,   3.92000,
,,,0.035400000000,   3.92000,
,,,0.035440000000,   3.88000,
,,,0.035480000000,   3.88000,
,,,0.035520000000,   3.92000,
,,,0.035560000000,   3.88000,
,,,0.035600000000,   3.88000,
,,,0.035640000000,   3.88000,
,,,0.035680000000,   3.88000,
,,,0.035720000000,   3.84000,
,,,0.035760000000,   3.88000,
,,,0.035800000000,   3.88000,
,,,0.035840000000,   3.88000,
,,,0.035880000000,   3.84000,
,,,0.035920000000,   3.84000,
,,,0.035960000000,   3.84000,
,,,0.036000000000,   3.84000,
,,,0.036040000000,   3.84000,
,,,0.036080000000,   3.80000,
,,,0.036120000000,   3.84000,
,,,0.036160000000,   3.80000,
,,,0.036200000000,   3.80000,
,,,0.036240000000,   3.80000,
,,,0.036280000000,   3.80000,
,,,0.036320000000,   3.80000,
,,,0.036360000000,   3.80000,
,,,0.036400000000,   3.80000,
,,,0.036440000000,   3.80000,
,,,0.036480000000,   3.80000,
,,,0.036520000000,   3.80000,
,,,0.036560000000,   3.76000,
,,,0.036600000000,   3.76000,
,,,0.036640000000,   3.76000,
,,,0.036680000000,   3.76000,
,,,0.036720000000,   3.76000,
,,,0.036760000000,   3.76000,
,,,0.036800000000,   3.76000,
,,,0.036840000000,   3.76000,
,,,0.036880000000,   3.72000,
,,,0.036920000000,   3.76000,
,,,0.036960000000,   3.72000,
,,,0.037000000000,   3.72000,
,,,0.037040000000,   3.72000,
,,,0.037080000000,   3.72000,
,,,0.037120000000,   3.72000,
,,,0.037160000000,   3.72000,
,,,0.037200000000,   3.72000,
,,,0.037240000000,   3.72000,
,,,0.037280000000,   3.72000,
,,,0.037320000000,   3.72000,
,,,0.037360000000,   3.68000,
,,,0.037400000000,   3.68000,
,,,0.037440000000,   3.68000,
,,,0.037480000000,   3.68000,
,,,0.037520000000,   3.68000,
,,,0.037560000000,   3.64000,
,,,0.037600000000,   3.68000,
,,,0.037640000000,   3.68000,
,,,0.037680000000,   3.64000,
,,,0.037720000000,   3.64000,
,,,0.037760000000,   3.64000,
,,,0.037800000000,   3.64000,
,,,0.037840000000,   3.64000,
,,,0.037880000000,   3.64000,
,,,0.037920000000,   3.64000,
,,,0.037960000000,   3.64000,
,,,0.038000000000,   3.64000,
,,,0.038040000000,   3.64000,
,,,0.038080000000,   3.64000,
,,,0.038120000000,   3.64000,
,,,0.038160000000,   3.60000,
,,,0.038200000000,   3.60000,
,,,0.038240000000,   3.56000,
,,,0.038280000000,   3.56000,
,,,0.038320000000,   3.56000,
,,,0.038360000000,   3.56000,
,,,0.038400000000,   3.56000,
,,,0.038440000000,   3.56000,
,,,0.038480000000,   3.56000,
,,,0.038520000000,   3.56000,
,,,0.038560000000,   3.56000,
,,,0.038600000000,   3.56000,
,,,0.038640000000,   3.52000,
,,,0.038680000000,   3.56000,
,,,0.038720000000,   3.52000,
,,,0.038760000000,   3.52000,
,,,0.038800000000,   3.52000,
,,,0.038840000000,   3.52000,
,,,0.038880000000,   3.52000,
,,,0.038920000000,   3.52000,
,,,0.038960000000,   3.52000,
,,,0.039000000000,   3.52000,
,,,0.039040000000,   3.52000,
,,,0.039080000000,   3.52000,
,,,0.039120000000,   3.48000,
,,,0.039160000000,   3.52000,
,,,0.039200000000,   3.48000,
,,,0.039240000000,   3.48000,
,,,0.039280000000,   3.48000,
,,,0.039320000000,   3.48000,
,,,0.039360000000,   3.44000,
,,,0.039400000000,   3.48000,
,,,0.039440000000,   3.44000,
,,,0.039480000000,   3.48000,
,,,0.039520000000,   3.44000,
,,,0.039560000000,   3.44000,
,,,0.039600000000,   3.44000,
,,,0.039640000000,   3.40000,
,,,0.039680000000,   3.44000,
,,,0.039720000000,   3.44000,
,,,0.039760000000,   3.44000,
,,,0.039800000000,   3.44000,
,,,0.039840000000,   3.40000,
,,,0.039880000000,   3.40000,
,,,0.039920000000,   3.40000,
,,,0.039960000000,   3.40000,
,,,0.040000000000,   3.40000,
,,,0.040040000000,   3.40000,
,,,0.040080000000,   3.40000,
,,,0.040120000000,   3.40000,
,,,0.040160000000,   3.40000,
,,,0.040200000000,   3.40000,
,,,0.040240000000,   3.36000,
,,,0.040280000000,   3.36000,
,,,0.040320000000,   3.36000,
,,,0.040360000000,   3.36000,
,,,0.040400000000,   3.36000,
,,,0.040440000000,   3.36000,
,,,0.040480000000,   3.36000,
,,,0.040520000000,   3.32000,
,,,0.040560000000,   3.36000,
,,,0.040600000000,   3.32000,
,,,0.040640000000,   3.36000,
,,,0.040680000000,   3.32000,
,,,0.040720000000,   3.32000,
,,,0.040760000000,   3.32000,
,,,0.040800000000,   3.28000,
,,,0.040840000000,   3.32000,
,,,0.040880000000,   3.28000,
,,,0.040920000000,   3.28000,
,,,0.040960000000,   3.28000,
,,,0.041000000000,   3.28000,
,,,0.041040000000,   3.28000,
,,,0.041080000000,   3.28000,
,,,0.041120000000,   3.28000,
,,,0.041160000000,   3.28000,
,,,0.041200000000,   3.28000,
,,,0.041240000000,   3.24000,
,,,0.041280000000,   3.24000,
,,,0.041320000000,   3.24000,
,,,0.041360000000,   3.24000,
,,,0.041400000000,   3.24000,
,,,0.041440000000,   3.24000,
,,,0.041480000000,   3.24000,
,,,0.041520000000,   3.24000,
,,,0.041560000000,   3.24000,
,,,0.041600000000,   3.24000,
,,,0.041640000000,   3.24000,
,,,0.041680000000,   3.20000,
,,,0.041720000000,   3.20000,
,,,0.041760000000,   3.24000,
,,,0.041800000000,   3.20000,
,,,0.041840000000,   3.20000,
,,,0.041880000000,   3.20000,
,,,0.041920000000,   3.16000,
,,,0.041960000000,   3.16000,
,,,0.042000000000,   3.20000,
,,,0.042040000000,   3.16000,
,,,0.042080000000,   3.16000,
,,,0.042120000000,   3.16000,
,,,0.042160000000,   3.16000,
,,,0.042200000000,   3.16000,
,,,0.042240000000,   3.16000,
,,,0.042280000000,   3.12000,
,,,0.042320000000,   3.12000,
,,,0.042360000000,   3.12000,
,,,0.042400000000,   3.12000,
,,,0.042440000000,   3.12000,
,,,0.042480000000,   3.12000,
,,,0.042520000000,   3.12000,
,,,0.042560000000,   3.12000,
,,,0.042600000000,   3.08000,
,,,0.042640000000,   3.12000,
,,,0.042680000000,   3.08000,
,,,0.042720000000,   3.08000,
,,,0.042760000000,   3.08000,
,,,0.042800000000,   3.08000,
,,,0.042840000000,   3.08000,
,,,0.042880000000,   3.08000,
,,,0.042920000000,   3.04000,
,,,0.042960000000,   3.08000,
,,,0.043000000000,   3.04000,
,,,0.043040000000,   3.08000,
,,,0.043080000000,   3.04000,
,,,0.043120000000,   3.04000,
,,,0.043160000000,   3.04000,
,,,0.043200000000,   3.04000,
,,,0.043240000000,   3.04000,
,,,0.043280000000,   3.04000,
,,,0.043320000000,   3.04000,
,,,0.043360000000,   3.04000,
,,,0.043400000000,   3.04000,
,,,0.043440000000,   3.04000,
,,,0.043480000000,   3.00000,
,,,0.043520000000,   3.00000,
,,,0.043560000000,   3.04000,
,,,0.043600000000,   3.00000,
,,,0.043640000000,   3.00000,
,,,0.043680000000,   3.00000,
,,,0.043720000000,   3.00000,
,,,0.043760000000,   3.00000,
,,,0.043800000000,   2.96000,
,,,0.043840000000,   2.96000,
,,,0.043880000000,   2.96000,
,,,0.043920000000,   2.96000,
,,,0.043960000000,   2.96000,
,,,0.044000000000,   2.96000,
,,,0.044040000000,   2.96000,
,,,0.044080000000,   2.96000,
,,,0.044120000000,   2.96000,
,,,0.044160000000,   2.96000,
,,,0.044200000000,   2.96000,
,,,0.044240000000,   2.92000,
,,,0.044280000000,   2.92000,
,,,0.044320000000,   2.92000,
,,,0.044360000000,   2.88000,
,,,0.044400000000,   2.88000,
,,,0.044440000000,   2.92000,
,,,0.044480000000,   2.92000,
,,,0.044520000000,   2.88000,
,,,0.044560000000,   2.88000,
,,,0.044600000000,   2.88000,
,,,0.044640000000,   2.84000,
,,,0.044680000000,   2.88000,
,,,0.044720000000,   2.84000,
,,,0.044760000000,   2.84000,
,,,0.044800000000,   2.88000,
,,,0.044840000000,   2.88000,
,,,0.044880000000,   2.84000,
,,,0.044920000000,   2.84000,
,,,0.044960000000,   2.84000,
,,,0.045000000000,   2.84000,
,,,0.045040000000,   2.84000,
,,,0.045080000000,   2.84000,
,,,0.045120000000,   2.80000,
,,,0.045160000000,   2.80000,
,,,0.045200000000,   2.80000,
,,,0.045240000000,   2.80000,
,,,0.045280000000,   2.80000,
,,,0.045320000000,   2.80000,
,,,0.045360000000,   2.80000,
,,,0.045400000000,   2.80000,
,,,0.045440000000,   2.80000,
,,,0.045480000000,   2.80000,
,,,0.045520000000,   2.76000,
,,,0.045560000000,   2.80000,
,,,0.045600000000,   2.80000,
,,,0.045640000000,   2.80000,
,,,0.045680000000,   2.76000,
,,,0.045720000000,   2.76000,
,,,0.045760000000,   2.76000,
,,,0.045800000000,   2.76000,
,,,0.045840000000,   2.76000,
,,,0.045880000000,   2.76000,
,,,0.045920000000,   2.76000,
,,,0.045960000000,   2.76000,
,,,0.046000000000,   2.72000,
,,,0.046040000000,   2.72000,
,,,0.046080000000,   2.72000,
,,,0.046120000000,   2.72000,
,,,0.046160000000,   2.72000,
,,,0.046200000000,   2.68000,
,,,0.046240000000,   2.68000,
,,,0.046280000000,   2.68000,
,,,0.046320000000,   2.68000,
,,,0.046360000000,   2.68000,
,,,0.046400000000,   2.68000,
,,,0.046440000000,   2.68000,
,,,0.046480000000,   2.68000,
,,,0.046520000000,   2.68000,
,,,0.046560000000,   2.68000,
,,,0.046600000000,   2.68000,
,,,0.046640000000,   2.64000,
,,,0.046680000000,   2.68000,
,,,0.046720000000,   2.64000,
,,,0.046760000000,   2.64000,
,,,0.046800000000,   2.64000,
,,,0.046840000000,   2.64000,
,,,0.046880000000,   2.60000,
,,,0.046920000000,   2.64000,
,,,0.046960000000,   2.60000,
,,,0.047000000000,   2.60000,
,,,0.047040000000,   2.60000,
,,,0.047080000000,   2.60000,
,,,0.047120000000,   2.60000,
,,,0.047160000000,   2.60000,
,,,0.047200000000,   2.60000,
,,,0.047240000000,   2.60000,
,,,0.047280000000,   2.60000,
,,,0.047320000000,   2.56000,
,,,0.047360000000,   2.56000,
,,,0.047400000000,   2.56000,
,,,0.047440000000,   2.56000,
,,,0.047480000000,   2.56000,
,,,0.047520000000,   2.56000,
,,,0.047560000000,   2.56000,
,,,0.047600000000,   2.56000,
,,,0.047640000000,   2.52000,
,,,0.047680000000,   2.52000,
,,,0.047720000000,   2.52000,
,,,0.047760000000,   2.52000,
,,,0.047800000000,   2.52000,
,,,0.047840000000,   2.52000,
,,,0.047880000000,   2.52000,
,,,0.047920000000,   2.52000,
,,,0.047960000000,   2.52000,
,,,0.048000000000,   2.52000,
,,,0.048040000000,   2.48000,
,,,0.048080000000,   2.48000,
,,,0.048120000000,   2.48000,
,,,0.048160000000,   2.48000,
,,,0.048200000000,   2.48000,
,,,0.048240000000,   2.48000,
,,,0.048280000000,   2.48000,
,,,0.048320000000,   2.44000,
,,,0.048360000000,   2.44000,
,,,0.048400000000,   2.44000,
,,,0.048440000000,   2.44000,
,,,0.048480000000,   2.44000,
,,,0.048520000000,   2.44000,
,,,0.048560000000,   2.44000,
,,,0.048600000000,   2.40000,
,,,0.048640000000,   2.44000,
,,,0.048680000000,   2.44000,
,,,0.048720000000,   2.40000,
,,,0.048760000000,   2.40000,
,,,0.048800000000,   2.40000,
,,,0.048840000000,   2.40000,
,,,0.048880000000,   2.40000,
,,,0.048920000000,   2.40000,
,,,0.048960000000,   2.40000,
,,,0.049000000000,   2.40000,
,,,0.049040000000,   2.40000,
,,,0.049080000000,   2.40000,
,,,0.049120000000,   2.36000,
,,,0.049160000000,   2.36000,
,,,0.049200000000,   2.36000,
,,,0.049240000000,   2.36000,
,,,0.049280000000,   2.36000,
,,,0.049320000000,   2.36000,
,,,0.049360000000,   2.36000,
,,,0.049400000000,   2.36000,
,,,0.049440000000,   2.36000,
,,,0.049480000000,   2.36000,
,,,0.049520000000,   2.32000,
,,,0.049560000000,   2.36000,
,,,0.049600000000,   2.32000,
,,,0.049640000000,   2.32000,
,,,0.049680000000,   2.32000,
,,,0.049720000000,   2.32000,
,,,0.049760000000,   2.32000,
,,,0.049800000000,   2.32000,
,,,0.049840000000,   2.32000,
,,,0.049880000000,   2.32000,
,,,0.049920000000,   2.28000,
,,,0.049960000000,   2.28000,
,,,0.050000000000,   2.28000,
,,,0.050040000000,   2.28000,
,,,0.050080000000,   2.24000,
,,,0.050120000000,   2.24000,
,,,0.050160000000,   2.24000,
,,,0.050200000000,   2.24000,
,,,0.050240000000,   2.24000,
,,,0.050280000000,   2.24000,
,,,0.050320000000,   2.24000,
,,,0.050360000000,   2.24000,
,,,0.050400000000,   2.24000,
,,,0.050440000000,   2.24000,
,,,0.050480000000,   2.24000,
,,,0.050520000000,   2.20000,
,,,0.050560000000,   2.20000,
,,,0.050600000000,   2.20000,
,,,0.050640000000,   2.20000,
,,,0.050680000000,   2.20000,
,,,0.050720000000,   2.20000,
,,,0.050760000000,   2.20000,
,,,0.050800000000,   2.20000,
,,,0.050840000000,   2.16000,
,,,0.050880000000,   2.16000,
,,,0.050920000000,   2.16000,
,,,0.050960000000,   2.16000,
,,,0.051000000000,   2.16000,
,,,0.051040000000,   2.16000,
,,,0.051080000000,   2.12000,
,,,0.051120000000,   2.16000,
,,,0.051160000000,   2.16000,
,,,0.051200000000,   2.16000,
,,,0.051240000000,   2.12000,
,,,0.051280000000,   2.12000,
,,,0.051320000000,   2.12000,
,,,0.051360000000,   2.12000,
,,,0.051400000000,   2.12000,
,,,0.051440000000,   2.12000,
,,,0.051480000000,   2.12000,
,,,0.051520000000,   2.12000,
,,,0.051560000000,   2.12000,
,,,0.051600000000,   2.08000,
,,,0.051640000000,   2.12000,
,,,0.051680000000,   2.08000,
,,,0.051720000000,   2.08000,
,,,0.051760000000,   2.08000,
,,,0.051800000000,   2.08000,
,,,0.051840000000,   2.08000,
,,,0.051880000000,   2.04000,
,,,0.051920000000,   2.08000,
,,,0.051960000000,   2.04000,
,,,0.052000000000,   2.04000,
,,,0.052040000000,   2.04000,
,,,0.052080000000,   2.04000,
,,,0.052120000000,   2.04000,
,,,0.052160000000,   2.04000,
,,,0.052200000000,   2.00000,
,,,0.052240000000,   2.04000,
,,,0.052280000000,   2.00000,
,,,0.052320000000,   2.00000,
,,,0.052360000000,   2.00000,
,,,0.052400000000,   2.00000,
,,,0.052440000000,   2.00000,
,,,0.052480000000,   2.00000,
,,,0.052520000000,   2.00000,
,,,0.052560000000,   2.00000,
,,,0.052600000000,   2.00000,
,,,0.052640000000,   2.00000,
,,,0.052680000000,   1.96000,
,,,0.052720000000,   1.96000,
,,,0.052760000000,   2.00000,
,,,0.052800000000,   2.00000,
,,,0.052840000000,   1.96000,
,,,0.052880000000,   1.96000,
,,,0.052920000000,   1.96000,
,,,0.052960000000,   1.96000,
,,,0.053000000000,   1.96000,
,,,0.053040000000,   1.96000,
,,,0.053080000000,   1.96000,
,,,0.053120000000,   1.92000,
,,,0.053160000000,   1.92000,
,,,0.053200000000,   1.92000,
,,,0.053240000000,   1.92000,
,,,0.053280000000,   1.92000,
,,,0.053320000000,   1.92000,
,,,0.053360000000,   1.88000,
,,,0.053400000000,   1.88000,
,,,0.053440000000,   1.88000,
,,,0.053480000000,   1.88000,
,,,0.053520000000,   1.88000,
,,,0.053560000000,   1.88000,
,,,0.053600000000,   1.88000,
,,,0.053640000000,   1.84000,
,,,0.053680000000,   1.88000,
,,,0.053720000000,   1.88000,
,,,0.053760000000,   1.88000,
,,,0.053800000000,   1.84000,
,,,0.053840000000,   1.84000,
,,,0.053880000000,   1.84000,
,,,0.053920000000,   1.84000,
,,,0.053960000000,   1.84000,
,,,0.054000000000,   1.84000,
,,,0.054040000000,   1.80000,
,,,0.054080000000,   1.84000,
,,,0.054120000000,   1.80000,
,,,0.054160000000,   1.80000,
,,,0.054200000000,   1.84000,
,,,0.054240000000,   1.80000,
,,,0.054280000000,   1.80000,
,,,0.054320000000,   1.80000,
,,,0.054360000000,   1.80000,
,,,0.054400000000,   1.80000,
,,,0.054440000000,   1.80000,
,,,0.054480000000,   1.80000,
,,,0.054520000000,   1.80000,
,,,0.054560000000,   1.76000,
,,,0.054600000000,   1.76000,
,,,0.054640000000,   1.76000,
,,,0.054680000000,   1.76000,
,,,0.054720000000,   1.72000,
,,,0.054760000000,   1.72000,
,,,0.054800000000,   1.76000,
,,,0.054840000000,   1.72000,
,,,0.054880000000,   1.76000,
,,,0.054920000000,   1.72000,
,,,0.054960000000,   1.72000,
,,,0.055000000000,   1.72000,
,,,0.055040000000,   1.72000,
,,,0.055080000000,   1.72000,
,,,0.055120000000,   1.72000,
,,,0.055160000000,   1.68000,
,,,0.055200000000,   1.72000,
,,,0.055240000000,   1.72000,
,,,0.055280000000,   1.68000,
,,,0.055320000000,   1.68000,
,,,0.055360000000,   1.68000,
,,,0.055400000000,   1.68000,
,,,0.055440000000,   1.64000,
,,,0.055480000000,   1.64000,
,,,0.055520000000,   1.68000,
,,,0.055560000000,   1.64000,
,,,0.055600000000,   1.64000,
,,,0.055640000000,   1.64000,
,,,0.055680000000,   1.64000,
,,,0.055720000000,   1.64000,
,,,0.055760000000,   1.64000,
,,,0.055800000000,   1.64000,
,,,0.055840000000,   1.64000,
,,,0.055880000000,   1.64000,
,,,0.055920000000,   1.64000,
,,,0.055960000000,   1.60000,
,,,0.056000000000,   1.60000,
,,,0.056040000000,   1.60000,
,,,0.056080000000,   1.60000,
,,,0.056120000000,   1.60000,
,,,0.056160000000,   1.60000,
,,,0.056200000000,   1.60000,
,,,0.056240000000,   1.60000,
,,,0.056280000000,   1.56000,
,,,0.056320000000,   1.56000,
,,,0.056360000000,   1.56000,
,,,0.056400000000,   1.56000,
,,,0.056440000000,   1.56000,
,,,0.056480000000,   1.56000,
,,,0.056520000000,   1.56000,
,,,0.056560000000,   1.56000,
,,,0.056600000000,   1.56000,
,,,0.056640000000,   1.56000,
,,,0.056680000000,   1.52000,
,,,0.056720000000,   1.56000,
,,,0.056760000000,   1.52000,
,,,0.056800000000,   1.52000,
,,,0.056840000000,   1.52000,
,,,0.056880000000,   1.52000,
,,,0.056920000000,   1.52000,
,,,0.056960000000,   1.48000,
,,,0.057000000000,   1.52000,
,,,0.057040000000,   1.52000,
,,,0.057080000000,   1.48000,
,,,0.057120000000,   1.48000,
,,,0.057160000000,   1.48000,
,,,0.057200000000,   1.44000,
,,,0.057240000000,   1.48000,
,,,0.057280000000,   1.44000,
,,,0.057320000000,   1.48000,
,,,0.057360000000,   1.44000,
,,,0.057400000000,   1.44000,
,,,0.057440000000,   1.44000,
,,,0.057480000000,   1.44000,
,,,0.057520000000,   1.44000,
,,,0.057560000000,   1.44000,
,,,0.057600000000,   1.44000,
,,,0.057640000000,   1.44000,
,,,0.057680000000,   1.44000,
,,,0.057720000000,   1.44000,
,,,0.057760000000,   1.40000,
,,,0.057800000000,   1.44000,
,,,0.057840000000,   1.40000,
,,,0.057880000000,   1.40000,
,,,0.057920000000,   1.40000,
,,,0.057960000000,   1.40000,
,,,0.058000000000,   1.40000,
,,,0.058040000000,   1.36000,
,,,0.058080000000,   1.36000,
,,,0.058120000000,   1.36000,
,,,0.058160000000,   1.36000,
,,,0.058200000000,   1.36000,
,,,0.058240000000,   1.36000,
,,,0.058280000000,   1.36000,
,,,0.058320000000,   1.36000,
,,,0.058360000000,   1.36000,
,,,0.058400000000,   1.32000,
,,,0.058440000000,   1.32000,
,,,0.058480000000,   1.32000,
,,,0.058520000000,   1.32000,
,,,0.058560000000,   1.32000,
,,,0.058600000000,   1.32000,
,,,0.058640000000,   1.32000,
,,,0.058680000000,   1.32000,
,,,0.058720000000,   1.28000,
,,,0.058760000000,   1.28000,
,,,0.058800000000,   1.28000,
,,,0.058840000000,   1.28000,
,,,0.058880000000,   1.28000,
,,,0.058920000000,   1.28000,
,,,0.058960000000,   1.28000,
,,,0.059000000000,   1.28000,
,,,0.059040000000,   1.28000,
,,,0.059080000000,   1.28000,
,,,0.059120000000,   1.28000,
,,,0.059160000000,   1.24000,
,,,0.059200000000,   1.28000,
,,,0.059240000000,   1.28000,
,,,0.059280000000,   1.24000,
,,,0.059320000000,   1.24000,
,,,0.059360000000,   1.24000,
,,,0.059400000000,   1.24000,
,,,0.059440000000,   1.24000,
,,,0.059480000000,   1.24000,
,,,0.059520000000,   1.20000,
,,,0.059560000000,   1.24000,
,,,0.059600000000,   1.20000,
,,,0.059640000000,   1.20000,
,,,0.059680000000,   1.20000,
,,,0.059720000000,   1.20000,
,,,0.059760000000,   1.20000,
,,,0.059800000000,   1.20000,
,,,0.059840000000,   1.20000,
,,,0.059880000000,   1.20000,
,,,0.059920000000,   1.16000,
,,,0.059960000000,   1.16000,
,,,0.060000000000,   1.16000,
,,,0.060040000000,   1.16000,
,,,0.060080000000,   1.16000,
,,,0.060120000000,   1.16000,
,,,0.060160000000,   1.16000,
,,,0.060200000000,   1.16000,
,,,0.060240000000,   1.16000,
,,,0.060280000000,   1.16000,
,,,0.060320000000,   1.12000,
,,,0.060360000000,   1.12000,
,,,0.060400000000,   1.12000,
,,,0.060440000000,   1.12000,
,,,0.060480000000,   1.12000,
,,,0.060520000000,   1.12000,
,,,0.060560000000,   1.12000,
,,,0.060600000000,   1.12000,
,,,0.060640000000,   1.08000,
,,,0.060680000000,   1.08000,
,,,0.060720000000,   1.08000,
,,,0.060760000000,   1.12000,
,,,0.060800000000,   1.08000,
,,,0.060840000000,   1.08000,
,,,0.060880000000,   1.08000,
,,,0.060920000000,   1.04000,
,,,0.060960000000,   1.08000,
,,,0.061000000000,   1.04000,
,,,0.061040000000,   1.04000,
,,,0.061080000000,   1.04000,
,,,0.061120000000,   1.04000,
,,,0.061160000000,   1.04000,
,,,0.061200000000,   1.04000,
,,,0.061240000000,   1.00000,
,,,0.061280000000,   1.00000,
,,,0.061320000000,   1.00000,
,,,0.061360000000,   1.00000,
,,,0.061400000000,   1.00000,
,,,0.061440000000,   1.00000,
,,,0.061480000000,   1.00000,
,,,0.061520000000,   1.00000,
,,,0.061560000000,   0.96000,
,,,0.061600000000,   1.00000,
,,,0.061640000000,   1.00000,
,,,0.061680000000,   1.00000,
,,,0.061720000000,   0.96000,
,,,0.061760000000,   0.96000,
,,,0.061800000000,   0.96000,
,,,0.061840000000,   1.00000,
,,,0.061880000000,   0.96000,
,,,0.061920000000,   0.96000,
,,,0.061960000000,   0.92000,
,,,0.062000000000,   0.96000,
,,,0.062040000000,   0.92000,
,,,0.062080000000,   0.92000,
,,,0.062120000000,   0.92000,
,,,0.062160000000,   0.92000,
,,,0.062200000000,   0.92000,
,,,0.062240000000,   0.92000,
,,,0.062280000000,   0.88000,
,,,0.062320000000,   0.92000,
,,,0.062360000000,   0.92000,
,,,0.062400000000,   0.92000,
,,,0.062440000000,   0.88000,
,,,0.062480000000,   0.92000,
,,,0.062520000000,   0.88000,
,,,0.062560000000,   0.88000,
,,,0.062600000000,   0.88000,
,,,0.062640000000,   0.88000,
,,,0.062680000000,   0.88000,
,,,0.062720000000,   0.88000,
,,,0.062760000000,   0.88000,
,,,0.062800000000,   0.84000,
,,,0.062840000000,   0.88000,
,,,0.062880000000,   0.88000,
,,,0.062920000000,   0.84000,
,,,0.062960000000,   0.84000,
,,,0.063000000000,   0.84000,
,,,0.063040000000,   0.84000,
,,,0.063080000000,   0.80000,
,,,0.063120000000,   0.84000,
,,,0.063160000000,   0.84000,
,,,0.063200000000,   0.80000,
,,,0.063240000000,   0.80000,
,,,0.063280000000,   0.80000,
,,,0.063320000000,   0.80000,
,,,0.063360000000,   0.80000,
,,,0.063400000000,   0.80000,
,,,0.063440000000,   0.80000,
,,,0.063480000000,   0.76000,
,,,0.063520000000,   0.76000,
,,,0.063560000000,   0.76000,
,,,0.063600000000,   0.76000,
,,,0.063640000000,   0.76000,
,,,0.063680000000,   0.76000,
,,,0.063720000000,   0.76000,
,,,0.063760000000,   0.76000,
,,,0.063800000000,   0.76000,
,,,0.063840000000,   0.76000,
,,,0.063880000000,   0.72000,
,,,0.063920000000,   0.72000,
,,,0.063960000000,   0.72000,
,,,0.064000000000,   0.72000,
,,,0.064040000000,   0.72000,
,,,0.064080000000,   0.72000,
,,,0.064120000000,   0.72000,
,,,0.064160000000,   0.72000,
,,,0.064200000000,   0.72000,
,,,0.064240000000,   0.72000,
,,,0.064280000000,   0.68000,
,,,0.064320000000,   0.72000,
,,,0.064360000000,   0.68000,
,,,0.064400000000,   0.68000,
,,,0.064440000000,   0.68000,
,,,0.064480000000,   0.68000,
,,,0.064520000000,   0.68000,
,,,0.064560000000,   0.68000,
,,,0.064600000000,   0.68000,
,,,0.064640000000,   0.68000,
,,,0.064680000000,   0.64000,
,,,0.064720000000,   0.64000,
,,,0.064760000000,   0.64000,
,,,0.064800000000,   0.64000,
,,,0.064840000000,   0.64000,
,,,0.064880000000,   0.64000,
,,,0.064920000000,   0.64000,
,,,0.064960000000,   0.64000,
,,,0.065000000000,   0.60000,
,,,0.065040000000,   0.60000,
,,,0.065080000000,   0.60000,
,,,0.065120000000,   0.60000,
,,,0.065160000000,   0.60000,
,,,0.065200000000,   0.60000,
,,,0.065240000000,   0.60000,
,,,0.065280000000,   0.60000,
,,,0.065320000000,   0.56000,
,,,0.065360000000,   0.56000,
,,,0.065400000000,   0.56000,
,,,0.065440000000,   0.56000,
,,,0.065480000000,   0.60000,
,,,0.065520000000,   0.56000,
,,,0.065560000000,   0.56000,
,,,0.065600000000,   0.56000,
,,,0.065640000000,   0.56000,
,,,0.065680000000,   0.56000,
,,,0.065720000000,   0.52000,
,,,0.065760000000,   0.52000,
,,,0.065800000000,   0.52000,
,,,0.065840000000,   0.52000,
,,,0.065880000000,   0.52000,
,,,0.065920000000,   0.52000,
,,,0.065960000000,   0.52000,
,,,0.066000000000,   0.52000,
,,,0.066040000000,   0.48000,
,,,0.066080000000,   0.48000,
,,,0.066120000000,   0.48000,
,,,0.066160000000,   0.48000,
,,,0.066200000000,   0.48000,
,,,0.066240000000,   0.48000,
,,,0.066280000000,   0.48000,
,,,0.066320000000,   0.48000,
,,,0.066360000000,   0.48000,
,,,0.066400000000,   0.48000,
,,,0.066440000000,   0.44000,
,,,0.066480000000,   0.44000,
,,,0.066520000000,   0.44000,
,,,0.066560000000,   0.44000,
,,,0.066600000000,   0.44000,
,,,0.066640000000,   0.44000,
,,,0.066680000000,   0.44000,
,,,0.066720000000,   0.40000,
,,,0.066760000000,   0.40000,
,,,0.066800000000,   0.40000,
,,,0.066840000000,   0.40000,
,,,0.066880000000,   0.40000,
,,,0.066920000000,   0.40000,
,,,0.066960000000,   0.40000,
,,,0.067000000000,   0.40000,
,,,0.067040000000,   0.36000,
,,,0.067080000000,   0.36000,
,,,0.067120000000,   0.40000,
,,,0.067160000000,   0.36000,
,,,0.067200000000,   0.36000,
,,,0.067240000000,   0.36000,
,,,0.067280000000,   0.36000,
,,,0.067320000000,   0.36000,
,,,0.067360000000,   0.36000,
,,,0.067400000000,   0.36000,
,,,0.067440000000,   0.36000,
,,,0.067480000000,   0.36000,
,,,0.067520000000,   0.32000,
,,,0.067560000000,   0.36000,
,,,0.067600000000,   0.32000,
,,,0.067640000000,   0.32000,
,,,0.067680000000,   0.32000,
,,,0.067720000000,   0.32000,
,,,0.067760000000,   0.32000,
,,,0.067800000000,   0.32000,
,,,0.067840000000,   0.28000,
,,,0.067880000000,   0.32000,
,,,0.067920000000,   0.28000,
,,,0.067960000000,   0.32000,
,,,0.068000000000,   0.32000,
,,,0.068040000000,   0.28000,
,,,0.068080000000,   0.28000,
,,,0.068120000000,   0.28000,
,,,0.068160000000,   0.24000,
,,,0.068200000000,   0.28000,
,,,0.068240000000,   0.28000,
,,,0.068280000000,   0.24000,
,,,0.068320000000,   0.24000,
,,,0.068360000000,   0.24000,
,,,0.068400000000,   0.24000,
,,,0.068440000000,   0.24000,
,,,0.068480000000,   0.24000,
,,,0.068520000000,   0.24000,
,,,0.068560000000,   0.20000,
,,,0.068600000000,   0.20000,
,,,0.068640000000,   0.20000,
,,,0.068680000000,   0.20000,
,,,0.068720000000,   0.20000,
,,,0.068760000000,   0.20000,
,,,0.068800000000,   0.20000,
,,,0.068840000000,   0.20000,
,,,0.068880000000,   0.20000,
,,,0.068920000000,   0.16000,
,,,0.068960000000,   0.16000,
,,,0.069000000000,   0.16000,
,,,0.069040000000,   0.16000,
,,,0.069080000000,   0.16000,
,,,0.069120000000,   0.16000,
,,,0.069160000000,   0.16000,
,,,0.069200000000,   0.16000,
,,,0.069240000000,   0.16000,
,,,0.069280000000,   0.16000,
,,,0.069320000000,   0.16000,
,,,0.069360000000,   0.12000,
,,,0.069400000000,   0.16000,
,,,0.069440000000,   0.12000,
,,,0.069480000000,   0.16000,
,,,0.069520000000,   0.12000,
,,,0.069560000000,   0.12000,
,,,0.069600000000,   0.12000,
,,,0.069640000000,   0.12000,
,,,0.069680000000,   0.12000,
,,,0.069720000000,   0.12000,
,,,0.069760000000,   0.12000,
,,,0.069800000000,   0.12000,
,,,0.069840000000,   0.08000,
,,,0.069880000000,   0.08000,
,,,0.069920000000,   0.08000,
,,,0.069960000000,   0.08000,
,,,0.070000000000,   0.08000,
,,,0.070040000000,   0.08000,
,,,0.070080000000,   0.04000,
,,,0.070120000000,   0.08000,
,,,0.070160000000,   0.04000,
,,,0.070200000000,   0.04000,
,,,0.070240000000,   0.04000,
,,,0.070280000000,   0.04000,
,,,0.070320000000,   0.04000,
,,,0.070360000000,   0.04000,
,,,0.070400000000,   0.04000,
,,,0.070440000000,   0.04000,
,,,0.070480000000,   0.04000,
,,,0.070520000000,   0.00000,
,,,0.070560000000,   0.04000,
,,,0.070600000000,   0.04000,
,,,0.070640000000,   0.04000,
,,,0.070680000000,   0.00000,
,,,0.070720000000,   0.00000,
,,,0.070760000000,   0.00000,
,,,0.070800000000,   0.00000,
,,,0.070840000000,   0.00000,
,,,0.070880000000,  -0.04000,
,,,0.070920000000,   0.00000,
,,,0.070960000000,  -0.04000,
,,,0.071000000000,  -0.04000,
,,,0.071040000000,  -0.04000,
,,,0.071080000000,  -0.04000,
,,,0.071120000000,  -0.04000,
,,,0.071160000000,  -0.04000,
,,,0.071200000000,   0.00000,
,,,0.071240000000,   0.00000,
,,,0.071280000000,   0.00000,
,,,0.071320000000,   0.00000,
,,,0.071360000000,   0.00000,
,,,0.071400000000,   0.00000,
,,,0.071440000000,   0.00000,
,,,0.071480000000,   0.00000,
,,,0.071520000000,   0.00000,
,,,0.071560000000,   0.00000,
,,,0.071600000000,   0.04000,
,,,0.071640000000,   0.04000,
,,,0.071680000000,   0.04000,
,,,0.071720000000,   0.04000,
,,,0.071760000000,   0.04000,
,,,0.071800000000,   0.04000,
,,,0.071840000000,   0.04000,
,,,0.071880000000,   0.04000,
,,,0.071920000000,   0.04000,
,,,0.071960000000,   0.08000,
,,,0.072000000000,   0.04000,
,,,0.072040000000,   0.08000,
,,,0.072080000000,   0.08000,
,,,0.072120000000,   0.08000,
,,,0.072160000000,   0.08000,
,,,0.072200000000,   0.08000,
,,,0.072240000000,   0.08000,
,,,0.072280000000,   0.08000,
,,,0.072320000000,   0.08000,
,,,0.072360000000,   0.08000,
,,,0.072400000000,   0.12000,
,,,0.072440000000,   0.12000,
,,,0.072480000000,   0.12000,
,,,0.072520000000,   0.12000,
,,,0.072560000000,   0.12000,
,,,0.072600000000,   0.12000,
,,,0.072640000000,   0.12000,
,,,0.072680000000,   0.12000,
,,,0.072720000000,   0.16000,
,,,0.072760000000,   0.16000,
,,,0.072800000000,   0.16000,
,,,0.072840000000,   0.16000,
,,,0.072880000000,   0.16000,
,,,0.072920000000,   0.16000,
,,,0.072960000000,   0.16000,
,,,0.073000000000,   0.16000,
,,,0.073040000000,   0.16000,
,,,0.073080000000,   0.16000,
,,,0.073120000000,   0.16000,
,,,0.073160000000,   0.16000,
,,,0.073200000000,   0.20000,
,,,0.073240000000,   0.16000,
,,,0.073280000000,   0.20000,
,,,0.073320000000,   0.20000,
,,,0.073360000000,   0.20000,
,,,0.073400000000,   0.20000,
,,,0.073440000000,   0.20000,
,,,0.073480000000,   0.20000,
,,,0.073520000000,   0.20000,
,,,0.073560000000,   0.20000,
,,,0.073600000000,   0.20000,
,,,0.073640000000,   0.24000,
,,,0.073680000000,   0.24000,
,,,0.073720000000,   0.24000,
,,,0.073760000000,   0.24000,
,,,0.073800000000,   0.24000,
,,,0.073840000000,   0.24000,
,,,0.073880000000,   0.24000,
,,,0.073920000000,   0.28000,
,,,0.073960000000,   0.28000,
,,,0.074000000000,   0.28000,
,,,0.074040000000,   0.28000,
,,,0.074080000000,   0.28000,
,,,0.074120000000,   0.28000,
,,,0.074160000000,   0.28000,
,,,0.074200000000,   0.28000,
,,,0.074240000000,   0.28000,
,,,0.074280000000,   0.32000,
,,,0.074320000000,   0.32000,
,,,0.074360000000,   0.32000,
,,,0.074400000000,   0.32000,
,,,0.074440000000,   0.32000,
,,,0.074480000000,   0.32000,
,,,0.074520000000,   0.32000,
,,,0.074560000000,   0.32000,
,,,0.074600000000,   0.32000,
,,,0.074640000000,   0.32000,
,,,0.074680000000,   0.32000,
,,,0.074720000000,   0.36000,
,,,0.074760000000,   0.36000,
,,,0.074800000000,   0.36000,
,,,0.074840000000,   0.36000,
,,,0.074880000000,   0.36000,
,,,0.074920000000,   0.36000,
,,,0.074960000000,   0.40000,
,,,0.075000000000,   0.40000,
,,,0.075040000000,   0.36000,
,,,0.075080000000,   0.40000,
,,,0.075120000000,   0.40000,
,,,0.075160000000,   0.40000,
,,,0.075200000000,   0.40000,
,,,0.075240000000,   0.44000,
,,,0.075280000000,   0.40000,
,,,0.075320000000,   0.44000,
,,,0.075360000000,   0.44000,
,,,0.075400000000,   0.44000,
,,,0.075440000000,   0.44000,
,,,0.075480000000,   0.44000,
,,,0.075520000000,   0.44000,
,,,0.075560000000,   0.44000,
,,,0.075600000000,   0.44000,
,,,0.075640000000,   0.44000,
,,,0.075680000000,   0.44000,
,,,0.075720000000,   0.44000,
,,,0.075760000000,   0.48000,
,,,0.075800000000,   0.44000,
,,,0.075840000000,   0.48000,
,,,0.075880000000,   0.48000,
,,,0.075920000000,   0.48000,
,,,0.075960000000,   0.48000,
,,,0.076000000000,   0.48000,
,,,0.076040000000,   0.48000,
,,,0.076080000000,   0.52000,
,,,0.076120000000,   0.52000,
,,,0.076160000000,   0.52000,
,,,0.076200000000,   0.52000,
,,,0.076240000000,   0.52000,
,,,0.076280000000,   0.52000,
,,,0.076320000000,   0.52000,
,,,0.076360000000,   0.56000,
,,,0.076400000000,   0.56000,
,,,0.076440000000,   0.52000,
,,,0.076480000000,   0.56000,
,,,0.076520000000,   0.56000,
,,,0.076560000000,   0.56000,
,,,0.076600000000,   0.56000,
,,,0.076640000000,   0.56000,
,,,0.076680000000,   0.56000,
,,,0.076720000000,   0.56000,
,,,0.076760000000,   0.60000,
,,,0.076800000000,   0.60000,
,,,0.076840000000,   0.60000,
,,,0.076880000000,   0.60000,
,,,0.076920000000,   0.60000,
,,,0.076960000000,   0.60000,
,,,0.077000000000,   0.60000,
,,,0.077040000000,   0.60000,
,,,0.077080000000,   0.60000,
,,,0.077120000000,   0.60000,
,,,0.077160000000,   0.64000,
,,,0.077200000000,   0.64000,
,,,0.077240000000,   0.64000,
,,,0.077280000000,   0.64000,
,,,0.077320000000,   0.64000,
,,,0.077360000000,   0.64000,
,,,0.077400000000,   0.68000,
,,,0.077440000000,   0.68000,
,,,0.077480000000,   0.64000,
,,,0.077520000000,   0.68000,
,,,0.077560000000,   0.68000,
,,,0.077600000000,   0.68000,
,,,0.077640000000,   0.68000,
,,,0.077680000000,   0.68000,
,,,0.077720000000,   0.68000,
,,,0.077760000000,   0.72000,
,,,0.077800000000,   0.68000,
,,,0.077840000000,   0.68000,
,,,0.077880000000,   0.72000,
,,,0.077920000000,   0.72000,
,,,0.077960000000,   0.72000,
,,,0.078000000000,   0.72000,
,,,0.078040000000,   0.72000,
,,,0.078080000000,   0.72000,
,,,0.078120000000,   0.72000,
,,,0.078160000000,   0.72000,
,,,0.078200000000,   0.72000,
,,,0.078240000000,   0.76000,
,,,0.078280000000,   0.76000,
,,,0.078320000000,   0.76000,
,,,0.078360000000,   0.76000,
,,,0.078400000000,   0.76000,
,,,0.078440000000,   0.76000,
,,,0.078480000000,   0.76000,
,,,0.078520000000,   0.76000,
,,,0.078560000000,   0.76000,
,,,0.078600000000,   0.80000,
,,,0.078640000000,   0.80000,
,,,0.078680000000,   0.80000,
,,,0.078720000000,   0.80000,
,,,0.078760000000,   0.80000,
,,,0.078800000000,   0.80000,
,,,0.078840000000,   0.80000,
,,,0.078880000000,   0.80000,
,,,0.078920000000,   0.84000,
,,,0.078960000000,   0.80000,
,,,0.079000000000,   0.84000,
,,,0.079040000000,   0.84000,
,,,0.079080000000,   0.84000,
,,,0.079120000000,   0.84000,
,,,0.079160000000,   0.84000,
,,,0.079200000000,   0.88000,
,,,0.079240000000,   0.88000,
,,,0.079280000000,   0.88000,
,,,0.079320000000,   0.88000,
,,,0.079360000000,   0.88000,
,,,0.079400000000,   0.88000,
,,,0.079440000000,   0.88000,
,,,0.079480000000,   0.88000,
,,,0.079520000000,   0.88000,
,,,0.079560000000,   0.92000,
,,,0.079600000000,   0.92000,
,,,0.079640000000,   0.92000,
,,,0.079680000000,   0.92000,
,,,0.079720000000,   0.92000,
,,,0.079760000000,   0.92000,
,,,0.079800000000,   0.92000,
,,,0.079840000000,   0.92000,
,,,0.079880000000,   0.92000,
,,,0.079920000000,   0.92000,
,,,0.079960000000,   0.92000,
,,,0.080000000000,   0.92000,
,,,0.080040000000,   0.92000,
,,,0.080080000000,   0.96000,
,,,0.080120000000,   0.96000,
,,,0.080160000000,   0.92000,
,,,0.080200000000,   0.96000,
,,,0.080240000000,   0.96000,
,,,0.080280000000,   1.00000,
,,,0.080320000000,   0.96000,
,,,0.080360000000,   0.96000,
,,,0.080400000000,   1.00000,
,,,0.080440000000,   1.00000,
,,,0.080480000000,   0.96000,
,,,0.080520000000,   1.00000,
,,,0.080560000000,   1.00000,
,,,0.080600000000,   1.00000,
,,,0.080640000000,   1.00000,
,,,0.080680000000,   1.00000,
,,,0.080720000000,   1.04000,
,,,0.080760000000,   1.00000,
,,,0.080800000000,   1.04000,
,,,0.080840000000,   1.04000,
,,,0.080880000000,   1.04000,
,,,0.080920000000,   1.04000,
,,,0.080960000000,   1.04000,
,,,0.081000000000,   1.04000,
,,,0.081040000000,   1.04000,
,,,0.081080000000,   1.04000,
,,,0.081120000000,   1.08000,
,,,0.081160000000,   1.08000,
,,,0.081200000000,   1.08000,
,,,0.081240000000,   1.08000,
,,,0.081280000000,   1.08000,
,,,0.081320000000,   1.08000,
,,,0.081360000000,   1.08000,
,,,0.081400000000,   1.08000,
,,,0.081440000000,   1.12000,
,,,0.081480000000,   1.12000,
,,,0.081520000000,   1.12000,
,,,0.081560000000,   1.12000,
,,,0.081600000000,   1.12000,
,,,0.081640000000,   1.12000,
,,,0.081680000000,   1.16000,
,,,0.081720000000,   1.16000,
,,,0.081760000000,   1.16000,
,,,0.081800000000,   1.16000,
,,,0.081840000000,   1.16000,
,,,0.081880000000,   1.16000,
,,,0.081920000000,   1.16000,
,,,0.081960000000,   1.16000,
,,,0.082000000000,   1.16000,
,,,0.082040000000,   1.16000,
,,,0.082080000000,   1.16000,
,,,0.082120000000,   1.16000,
,,,0.082160000000,   1.16000,
,,,0.082200000000,   1.16000,
,,,0.082240000000,   1.20000,
,,,0.082280000000,   1.20000,
,,,0.082320000000,   1.20000,
,,,0.082360000000,   1.20000,
,,,0.082400000000,   1.20000,
,,,0.082440000000,   1.20000,
,,,0.082480000000,   1.24000,
,,,0.082520000000,   1.24000,
,,,0.082560000000,   1.24000,
,,,0.082600000000,   1.24000,
,,,0.082640000000,   1.24000,
,,,0.082680000000,   1.24000,
,,,0.082720000000,   1.24000,
,,,0.082760000000,   1.24000,
,,,0.082800000000,   1.28000,
,,,0.082840000000,   1.24000,
,,,0.082880000000,   1.28000,
,,,0.082920000000,   1.28000,
,,,0.082960000000,   1.28000,
,,,0.083000000000,   1.28000,
,,,0.083040000000,   1.28000,
,,,0.083080000000,   1.28000,
,,,0.083120000000,   1.28000,
,,,0.083160000000,   1.28000,
,,,0.083200000000,   1.28000,
,,,0.083240000000,   1.32000,
,,,0.083280000000,   1.28000,
,,,0.083320000000,   1.32000,
,,,0.083360000000,   1.32000,
,,,0.083400000000,   1.32000,
,,,0.083440000000,   1.32000,
,,,0.083480000000,   1.32000,
,,,0.083520000000,   1.32000,
,,,0.083560000000,   1.32000,
,,,0.083600000000,   1.36000,
,,,0.083640000000,   1.36000,
,,,0.083680000000,   1.36000,
,,,0.083720000000,   1.36000,
,,,0.083760000000,   1.36000,
,,,0.083800000000,   1.36000,
,,,0.083840000000,   1.36000,
,,,0.083880000000,   1.36000,
,,,0.083920000000,   1.36000,
,,,0.083960000000,   1.40000,
,,,0.084000000000,   1.36000,
,,,0.084040000000,   1.40000,
,,,0.084080000000,   1.40000,
,,,0.084120000000,   1.40000,
,,,0.084160000000,   1.40000,
,,,0.084200000000,   1.40000,
,,,0.084240000000,   1.40000,
,,,0.084280000000,   1.40000,
,,,0.084320000000,   1.44000,
,,,0.084360000000,   1.44000,
,,,0.084400000000,   1.44000,
,,,0.084440000000,   1.44000,
,,,0.084480000000,   1.44000,
,,,0.084520000000,   1.44000,
,,,0.084560000000,   1.44000,
,,,0.084600000000,   1.44000,
,,,0.084640000000,   1.48000,
,,,0.084680000000,   1.44000,
,,,0.084720000000,   1.44000,
,,,0.084760000000,   1.48000,
,,,0.084800000000,   1.48000,
,,,0.084840000000,   1.48000,
,,,0.084880000000,   1.48000,
,,,0.084920000000,   1.48000,
,,,0.084960000000,   1.48000,
,,,0.085000000000,   1.52000,
,,,0.085040000000,   1.48000,
,,,0.085080000000,   1.52000,
,,,0.085120000000,   1.52000,
,,,0.085160000000,   1.52000,
,,,0.085200000000,   1.56000,
,,,0.085240000000,   1.52000,
,,,0.085280000000,   1.52000,
,,,0.085320000000,   1.56000,
,,,0.085360000000,   1.56000,
,,,0.085400000000,   1.52000,
,,,0.085440000000,   1.56000,
,,,0.085480000000,   1.56000,
,,,0.085520000000,   1.56000,
,,,0.085560000000,   1.56000,
,,,0.085600000000,   1.56000,
,,,0.085640000000,   1.56000,
,,,0.085680000000,   1.56000,
,,,0.085720000000,   1.56000,
,,,0.085760000000,   1.56000,
,,,0.085800000000,   1.60000,
,,,0.085840000000,   1.60000,
,,,0.085880000000,   1.60000,
,,,0.085920000000,   1.60000,
,,,0.085960000000,   1.60000,
,,,0.086000000000,   1.64000,
,,,0.086040000000,   1.60000,
,,,0.086080000000,   1.60000,
,,,0.086120000000,   1.64000,
,,,0.086160000000,   1.64000,
,,,0.086200000000,   1.64000,
,,,0.086240000000,   1.64000,
,,,0.086280000000,   1.64000,
,,,0.086320000000,   1.64000,
,,,0.086360000000,   1.64000,
,,,0.086400000000,   1.64000,
,,,0.086440000000,   1.68000,
,,,0.086480000000,   1.68000,
,,,0.086520000000,   1.68000,
,,,0.086560000000,   1.68000,
,,,0.086600000000,   1.68000,
,,,0.086640000000,   1.72000,
,,,0.086680000000,   1.68000,
,,,0.086720000000,   1.68000,
,,,0.086760000000,   1.72000,
,,,0.086800000000,   1.72000,
,,,0.086840000000,   1.68000,
,,,0.086880000000,   1.72000,
,,,0.086920000000,   1.72000,
,,,0.086960000000,   1.72000,
,,,0.087000000000,   1.72000,
,,,0.087040000000,   1.72000,
,,,0.087080000000,   1.72000,
,,,0.087120000000,   1.72000,
,,,0.087160000000,   1.72000,
,,,0.087200000000,   1.76000,
,,,0.087240000000,   1.76000,
,,,0.087280000000,   1.76000,
,,,0.087320000000,   1.76000,
,,,0.087360000000,   1.76000,
,,,0.087400000000,   1.76000,
,,,0.087440000000,   1.80000,
,,,0.087480000000,   1.76000,
,,,0.087520000000,   1.80000,
,,,0.087560000000,   1.80000,
,,,0.087600000000,   1.80000,
,,,0.087640000000,   1.80000,
,,,0.087680000000,   1.80000,
,,,0.087720000000,   1.80000,
,,,0.087760000000,   1.80000,
,,,0.087800000000,   1.80000,
,,,0.087840000000,   1.84000,
,,,0.087880000000,   1.80000,
,,,0.087920000000,   1.84000,
,,,0.087960000000,   1.84000,
,,,0.088000000000,   1.84000,
,,,0.088040000000,   1.84000,
,,,0.088080000000,   1.84000,
,,,0.088120000000,   1.84000,
,,,0.088160000000,   1.84000,
,,,0.088200000000,   1.84000,
,,,0.088240000000,   1.88000,
,,,0.088280000000,   1.88000,
,,,0.088320000000,   1.88000,
,,,0.088360000000,   1.84000,
,,,0.088400000000,   1.88000,
,,,0.088440000000,   1.88000,
,,,0.088480000000,   1.88000,
,,,0.088520000000,   1.92000,
,,,0.088560000000,   1.92000,
,,,0.088600000000,   1.92000,
,,,0.088640000000,   1.92000,
,,,0.088680000000,   1.92000,
,,,0.088720000000,   1.92000,
,,,0.088760000000,   1.92000,
,,,0.088800000000,   1.92000,
,,,0.088840000000,   1.96000,
,,,0.088880000000,   1.96000,
,,,0.088920000000,   1.96000,
,,,0.088960000000,   1.96000,
,,,0.089000000000,   1.96000,
,,,0.089040000000,   1.96000,
,,,0.089080000000,   2.00000,
,,,0.089120000000,   1.96000,
,,,0.089160000000,   1.96000,
,,,0.089200000000,   2.00000,
,,,0.089240000000,   2.00000,
,,,0.089280000000,   2.00000,
,,,0.089320000000,   2.00000,
,,,0.089360000000,   1.96000,
,,,0.089400000000,   2.00000,
,,,0.089440000000,   2.00000,
,,,0.089480000000,   2.00000,
,,,0.089520000000,   2.00000,
,,,0.089560000000,   2.04000,
,,,0.089600000000,   2.00000,
,,,0.089640000000,   2.00000,
,,,0.089680000000,   2.00000,
,,,0.089720000000,   2.04000,
,,,0.089760000000,   2.04000,
,,,0.089800000000,   2.04000,
,,,0.089840000000,   2.04000,
,,,0.089880000000,   2.04000,
,,,0.089920000000,   2.04000,
,,,0.089960000000,   2.04000,
,,,0.090000000000,   2.04000,
,,,0.090040000000,   2.08000,
,,,0.090080000000,   2.08000,
,,,0.090120000000,   2.08000,
,,,0.090160000000,   2.08000,
,,,0.090200000000,   2.08000,
,,,0.090240000000,   2.08000,
,,,0.090280000000,   2.12000,
,,,0.090320000000,   2.12000,
,,,0.090360000000,   2.08000,
,,,0.090400000000,   2.12000,
,,,0.090440000000,   2.12000,
,,,0.090480000000,   2.12000,
,,,0.090520000000,   2.12000,
,,,0.090560000000,   2.12000,
,,,0.090600000000,   2.12000,
,,,0.090640000000,   2.12000,
,,,0.090680000000,   2.16000,
,,,0.090720000000,   2.16000,
,,,0.090760000000,   2.12000,
,,,0.090800000000,   2.16000,
,,,0.090840000000,   2.16000,
,,,0.090880000000,   2.16000,
,,,0.090920000000,   2.16000,
,,,0.090960000000,   2.16000,
,,,0.091000000000,   2.16000,
,,,0.091040000000,   2.20000,
,,,0.091080000000,   2.16000,
,,,0.091120000000,   2.20000,
,,,0.091160000000,   2.16000,
,,,0.091200000000,   2.20000,
,,,0.091240000000,   2.20000,
,,,0.091280000000,   2.20000,
,,,0.091320000000,   2.20000,
,,,0.091360000000,   2.20000,
,,,0.091400000000,   2.20000,
,,,0.091440000000,   2.24000,
,,,0.091480000000,   2.24000,
,,,0.091520000000,   2.24000,
,,,0.091560000000,   2.24000,
,,,0.091600000000,   2.24000,
,,,0.091640000000,   2.24000,
,,,0.091680000000,   2.24000,
,,,0.091720000000,   2.24000,
,,,0.091760000000,   2.28000,
,,,0.091800000000,   2.24000,
,,,0.091840000000,   2.24000,
,,,0.091880000000,   2.24000,
,,,0.091920000000,   2.28000,
,,,0.091960000000,   2.28000,
,,,0.092000000000,   2.28000,
,,,0.092040000000,   2.28000,
,,,0.092080000000,   2.28000,
,,,0.092120000000,   2.32000,
,,,0.092160000000,   2.28000,
,,,0.092200000000,   2.32000,
,,,0.092240000000,   2.32000,
,,,0.092280000000,   2.32000,
,,,0.092320000000,   2.32000,
,,,0.092360000000,   2.32000,
,,,0.092400000000,   2.36000,
,,,0.092440000000,   2.32000,
,,,0.092480000000,   2.36000,
,,,0.092520000000,   2.36000,
,,,0.092560000000,   2.36000,
,,,0.092600000000,   2.36000,
,,,0.092640000000,   2.36000,
,,,0.092680000000,   2.36000,
,,,0.092720000000,   2.36000,
,,,0.092760000000,   2.36000,
,,,0.092800000000,   2.36000,
,,,0.092840000000,   2.36000,
,,,0.092880000000,   2.40000,
,,,0.092920000000,   2.40000,
,,,0.092960000000,   2.40000,
,,,0.093000000000,   2.40000,
,,,0.093040000000,   2.40000,
,,,0.093080000000,   2.40000,
,,,0.093120000000,   2.40000,
,,,0.093160000000,   2.40000,
,,,0.093200000000,   2.44000,
,,,0.093240000000,   2.40000,
,,,0.093280000000,   2.44000,
,,,0.093320000000,   2.44000,
,,,0.093360000000,   2.44000,
,,,0.093400000000,   2.48000,
,,,0.093440000000,   2.44000,
,,,0.093480000000,   2.44000,
,,,0.093520000000,   2.44000,
,,,0.093560000000,   2.48000,
,,,0.093600000000,   2.48000,
,,,0.093640000000,   2.48000,
,,,0.093680000000,   2.48000,
,,,0.093720000000,   2.48000,
,,,0.093760000000,   2.48000,
,,,0.093800000000,   2.48000,
,,,0.093840000000,   2.52000,
,,,0.093880000000,   2.52000,
,,,0.093920000000,   2.52000,
,,,0.093960000000,   2.52000,
,,,0.094000000000,   2.52000,
,,,0.094040000000,   2.52000,
,,,0.094080000000,   2.52000,
,,,0.094120000000,   2.52000,
,,,0.094160000000,   2.52000,
,,,0.094200000000,   2.56000,
,,,0.094240000000,   2.52000,
,,,0.094280000000,   2.52000,
,,,0.094320000000,   2.56000,
,,,0.094360000000,   2.56000,
,,,0.094400000000,   2.56000,
,,,0.094440000000,   2.56000,
,,,0.094480000000,   2.60000,
,,,0.094520000000,   2.56000,
,,,0.094560000000,   2.56000,
,,,0.094600000000,   2.60000,
,,,0.094640000000,   2.60000,
,,,0.094680000000,   2.60000,
,,,0.094720000000,   2.60000,
,,,0.094760000000,   2.60000,
,,,0.094800000000,   2.60000,
,,,0.094840000000,   2.60000,
,,,0.094880000000,   2.64000,
,,,0.094920000000,   2.60000,
,,,0.094960000000,   2.64000,
,,,0.095000000000,   2.64000,
,,,0.095040000000,   2.64000,
,,,0.095080000000,   2.64000,
,,,0.095120000000,   2.64000,
,,,0.095160000000,   2.64000,
,,,0.095200000000,   2.64000,
,,,0.095240000000,   2.68000,
,,,0.095280000000,   2.68000,
,,,0.095320000000,   2.68000,
,,,0.095360000000,   2.68000,
,,,0.095400000000,   2.68000,
,,,0.095440000000,   2.68000,
,,,0.095480000000,   2.68000,
,,,0.095520000000,   2.68000,
,,,0.095560000000,   2.68000,
,,,0.095600000000,   2.72000,
,,,0.095640000000,   2.68000,
,,,0.095680000000,   2.68000,
,,,0.095720000000,   2.72000,
,,,0.095760000000,   2.72000,
,,,0.095800000000,   2.72000,
,,,0.095840000000,   2.72000,
,,,0.095880000000,   2.72000,
,,,0.095920000000,   2.72000,
,,,0.095960000000,   2.76000,
,,,0.096000000000,   2.76000,
,,,0.096040000000,   2.76000,
,,,0.096080000000,   2.76000,
,,,0.096120000000,   2.76000,
,,,0.096160000000,   2.76000,
,,,0.096200000000,   2.76000,
,,,0.096240000000,   2.80000,
,,,0.096280000000,   2.76000,
,,,0.096320000000,   2.80000,
,,,0.096360000000,   2.80000,
,,,0.096400000000,   2.80000,
,,,0.096440000000,   2.80000,
,,,0.096480000000,   2.80000,
,,,0.096520000000,   2.80000,
,,,0.096560000000,   2.80000,
,,,0.096600000000,   2.80000,
,,,0.096640000000,   2.80000,
,,,0.096680000000,   2.80000,
,,,0.096720000000,   2.84000,
,,,0.096760000000,   2.84000,
,,,0.096800000000,   2.84000,
,,,0.096840000000,   2.84000,
,,,0.096880000000,   2.84000,
,,,0.096920000000,   2.84000,
,,,0.096960000000,   2.84000,
,,,0.097000000000,   2.84000,
,,,0.097040000000,   2.84000,
,,,0.097080000000,   2.88000,
,,,0.097120000000,   2.88000,
,,,0.097160000000,   2.88000,
,,,0.097200000000,   2.88000,
,,,0.097240000000,   2.88000,
,,,0.097280000000,   2.92000,
,,,0.097320000000,   2.88000,
,,,0.097360000000,   2.92000,
,,,0.097400000000,   2.88000,
,,,0.097440000000,   2.92000,
,,,0.097480000000,   2.92000,
,,,0.097520000000,   2.92000,
,,,0.097560000000,   2.92000,
,,,0.097600000000,   2.92000,
,,,0.097640000000,   2.92000,
,,,0.097680000000,   2.96000,
,,,0.097720000000,   2.96000,
,,,0.097760000000,   2.96000,
,,,0.097800000000,   2.96000,
,,,0.097840000000,   2.96000,
,,,0.097880000000,   2.96000,
,,,0.097920000000,   3.00000,
,,,0.097960000000,   3.00000,
,,,0.098000000000,   2.96000,
,,,0.098040000000,   2.96000,
,,,0.098080000000,   3.00000,
,,,0.098120000000,   3.00000,
,,,0.098160000000,   3.00000,
,,,0.098200000000,   3.00000,
,,,0.098240000000,   3.00000,
,,,0.098280000000,   3.00000,
,,,0.098320000000,   3.00000,
,,,0.098360000000,   3.04000,
,,,0.098400000000,   3.04000,
,,,0.098440000000,   3.04000,
,,,0.098480000000,   3.04000,
,,,0.098520000000,   3.04000,
,,,0.098560000000,   3.04000,
,,,0.098600000000,   3.00000,
,,,0.098640000000,   3.04000,
,,,0.098680000000,   3.04000,
,,,0.098720000000,   3.04000,
,,,0.098760000000,   3.08000,
,,,0.098800000000,   3.08000,
,,,0.098840000000,   3.08000,
,,,0.098880000000,   3.08000,
,,,0.098920000000,   3.08000,
,,,0.098960000000,   3.08000,
,,,0.099000000000,   3.08000,
,,,0.099040000000,   3.08000,
,,,0.099080000000,   3.08000,
,,,0.099120000000,   3.08000,
,,,0.099160000000,   3.08000,
,,,0.099200000000,   3.08000,
,,,0.099240000000,   3.12000,
,,,0.099280000000,   3.12000,
,,,0.099320000000,   3.12000,
,,,0.099360000000,   3.12000,
,,,0.099400000000,   3.12000,
,,,0.099440000000,   3.16000,
,,,0.099480000000,   3.16000,
,,,0.099520000000,   3.12000,
,,,0.099560000000,   3.16000,
,,,0.099600000000,   3.16000,
,,,0.099640000000,   3.16000,
,,,0.099680000000,   3.16000,
,,,0.099720000000,   3.16000,
,,,0.099760000000,   3.16000,
,,,0.099800000000,   3.16000,
,,,0.099840000000,   3.20000,
,,,0.099880000000,   3.16000,
,,,0.099920000000,   3.20000,
,,,0.099960000000,   3.16000,
,,,0.100000000000,   3.20000,
,,,0.100040000000,   3.20000,
,,,0.100080000000,   3.24000,
,,,0.100120000000,   3.20000,
,,,0.100160000000,   3.24000,
,,,0.100200000000,   3.20000,
,,,0.100240000000,   3.24000,
,,,0.100280000000,   3.24000,
,,,0.100320000000,   3.24000,
,,,0.100360000000,   3.24000,
,,,0.100400000000,   3.24000,
,,,0.100440000000,   3.24000,
,,,0.100480000000,   3.24000,
,,,0.100520000000,   3.24000,
,,,0.100560000000,   3.28000,
,,,0.100600000000,   3.28000,
,,,0.100640000000,   3.28000,
,,,0.100680000000,   3.28000,
,,,0.100720000000,   3.28000,
,,,0.100760000000,   3.28000,
,,,0.100800000000,   3.28000,
,,,0.100840000000,   3.32000,
,,,0.100880000000,   3.28000,
,,,0.100920000000,   3.28000,
,,,0.100960000000,   3.32000,
,,,0.101000000000,   3.32000,
,,,0.101040000000,   3.32000,
,,,0.101080000000,   3.32000,
,,,0.101120000000,   3.32000,
,,,0.101160000000,   3.32000,
,,,0.101200000000,   3.36000,
,,,0.101240000000,   3.36000,
,,,0.101280000000,   3.36000,
,,,0.101320000000,   3.36000,
,,,0.101360000000,   3.36000,
,,,0.101400000000,   3.36000,
,,,0.101440000000,   3.36000,
,,,0.101480000000,   3.36000,
,,,0.101520000000,   3.36000,
,,,0.101560000000,   3.36000,
,,,0.101600000000,   3.36000,
,,,0.101640000000,   3.40000,
,,,0.101680000000,   3.40000,
,,,0.101720000000,   3.40000,
,,,0.101760000000,   3.40000,
,,,0.101800000000,   3.40000,
,,,0.101840000000,   3.40000,
,,,0.101880000000,   3.40000,
,,,0.101920000000,   3.44000,
,,,0.101960000000,   3.40000,
,,,0.102000000000,   3.40000,
,,,0.102040000000,   3.40000,
,,,0.102080000000,   3.44000,
,,,0.102120000000,   3.40000,
,,,0.102160000000,   3.44000,
,,,0.102200000000,   3.44000,
,,,0.102240000000,   3.44000,
,,,0.102280000000,   3.44000,
,,,0.102320000000,   3.48000,
,,,0.102360000000,   3.44000,
,,,0.102400000000,   3.48000,
,,,0.102440000000,   3.44000,
,,,0.102480000000,   3.48000,
,,,0.102520000000,   3.48000,
,,,0.102560000000,   3.48000,
,,,0.102600000000,   3.48000,
,,,0.102640000000,   3.48000,
,,,0.102680000000,   3.52000,
,,,0.102720000000,   3.52000,
,,,0.102760000000,   3.52000,
,,,0.102800000000,   3.52000,
,,,0.102840000000,   3.52000,
,,,0.102880000000,   3.52000,
,,,0.102920000000,   3.52000,
,,,0.102960000000,   3.56000,
,,,0.103000000000,   3.52000,
,,,0.103040000000,   3.56000,
,,,0.103080000000,   3.56000,
,,,0.103120000000,   3.56000,
,,,0.103160000000,   3.56000,
,,,0.103200000000,   3.56000,
,,,0.103240000000,   3.56000,
,,,0.103280000000,   3.56000,
,,,0.103320000000,   3.56000,
,,,0.103360000000,   3.56000,
,,,0.103400000000,   3.60000,
,,,0.103440000000,   3.60000,
,,,0.103480000000,   3.60000,
,,,0.103520000000,   3.60000,
,,,0.103560000000,   3.60000,
,,,0.103600000000,   3.60000,
,,,0.103640000000,   3.60000,
,,,0.103680000000,   3.64000,
,,,0.103720000000,   3.64000,
,,,0.103760000000,   3.64000,
,,,0.103800000000,   3.64000,
,,,0.103840000000,   3.64000,
,,,0.103880000000,   3.64000,
,,,0.103920000000,   3.64000,
,,,0.103960000000,   3.64000,
,,,0.104000000000,   3.64000,
,,,0.104040000000,   3.64000,
,,,0.104080000000,   3.68000,
,,,0.104120000000,   3.64000,
,,,0.104160000000,   3.68000,
,,,0.104200000000,   3.68000,
,,,0.104240000000,   3.68000,
,,,0.104280000000,   3.72000,
,,,0.104320000000,   3.72000,
,,,0.104360000000,   3.68000,
,,,0.104400000000,   3.68000,
,,,0.104440000000,   3.68000,
,,,0.104480000000,   3.72000,
,,,0.104520000000,   3.72000,
,,,0.104560000000,   3.72000,
,,,0.104600000000,   3.72000,
,,,0.104640000000,   3.72000,
,,,0.104680000000,   3.72000,
,,,0.104720000000,   3.72000,
,,,0.104760000000,   3.76000,
,,,0.104800000000,   3.76000,
,,,0.104840000000,   3.76000,
,,,0.104880000000,   3.76000,
,,,0.104920000000,   3.76000,
,,,0.104960000000,   3.76000,
,,,0.105000000000,   3.76000,
,,,0.105040000000,   3.76000,
,,,0.105080000000,   3.80000,
,,,0.105120000000,   3.80000,
,,,0.105160000000,   3.76000,
,,,0.105200000000,   3.80000,
,,,0.105240000000,   3.80000,
,,,0.105280000000,   3.80000,
,,,0.105320000000,   3.80000,
,,,0.105360000000,   3.80000,
,,,0.105400000000,   3.80000,
,,,0.105440000000,   3.80000,
,,,0.105480000000,   3.80000,
,,,0.105520000000,   3.80000,
,,,0.105560000000,   3.80000,
,,,0.105600000000,   3.80000,
,,,0.105640000000,   3.84000,
,,,0.105680000000,   3.84000,
,,,0.105720000000,   3.84000,
,,,0.105760000000,   3.84000,
,,,0.105800000000,   3.84000,
,,,0.105840000000,   3.88000,
,,,0.105880000000,   3.84000,
,,,0.105920000000,   3.88000,
,,,0.105960000000,   3.88000,
,,,0.106000000000,   3.88000,
,,,0.106040000000,   3.88000,
,,,0.106080000000,   3.88000,
,,,0.106120000000,   3.88000,
,,,0.106160000000,   3.88000,
,,,0.106200000000,   3.92000,
,,,0.106240000000,   3.88000,
,,,0.106280000000,   3.88000,
,,,0.106320000000,   3.92000,
,,,0.106360000000,   3.92000,
,,,0.106400000000,   3.92000,
,,,0.106440000000,   3.92000,
,,,0.106480000000,   3.92000,
,,,0.106520000000,   3.92000,
,,,0.106560000000,   3.92000,
,,,0.106600000000,   3.96000,
,,,0.106640000000,   3.96000,
,,,0.106680000000,   3.92000,
,,,0.106720000000,   3.96000,
,,,0.106760000000,   3.96000,
,,,0.106800000000,   3.96000,
,,,0.106840000000,   3.96000,
,,,0.106880000000,   3.96000,
,,,0.106920000000,   4.00000,
,,,0.106960000000,   3.96000,
,,,0.107000000000,   4.00000,
,,,0.107040000000,   4.00000,
,,,0.107080000000,   4.00000,
,,,0.107120000000,   4.00000,
,,,0.107160000000,   4.00000,
,,,0.107200000000,   4.00000,
,,,0.107240000000,   4.00000,
,,,0.107280000000,   4.04000,
,,,0.107320000000,   4.00000,
,,,0.107360000000,   4.04000,
,,,0.107400000000,   4.04000,
,,,0.107440000000,   4.04000,
,,,0.107480000000,   4.04000,
,,,0.107520000000,   4.04000,
,,,0.107560000000,   4.04000,
,,,0.107600000000,   4.04000,
,,,0.107640000000,   4.04000,
,,,0.107680000000,   4.08000,
,,,0.107720000000,   4.08000,
,,,0.107760000000,   4.04000,
,,,0.107800000000,   4.08000,
,,,0.107840000000,   4.08000,
,,,0.107880000000,   4.08000,
,,,0.107920000000,   4.08000,
,,,0.107960000000,   4.08000,
,,,0.108000000000,   4.12000,
,,,0.108040000000,   4.12000,
,,,0.108080000000,   4.08000,
,,,0.108120000000,   4.12000,
,,,0.108160000000,   4.12000,
,,,0.108200000000,   4.12000,
,,,0.108240000000,   4.08000,
,,,0.108280000000,   4.12000,
,,,0.108320000000,   4.12000,
,,,0.108360000000,   4.12000,
,,,0.108400000000,   4.12000,
,,,0.108440000000,   4.16000,
,,,0.108480000000,   4.16000,
,,,0.108520000000,   4.12000,
,,,0.108560000000,   4.16000,
,,,0.108600000000,   4.16000,
,,,0.108640000000,   4.16000,
,,,0.108680000000,   4.16000,
,,,0.108720000000,   4.16000,
,,,0.108760000000,   4.16000,
,,,0.108800000000,   4.20000,
,,,0.108840000000,   4.20000,
,,,0.108880000000,   4.20000,
,,,0.108920000000,   4.20000,
,,,0.108960000000,   4.20000,
,,,0.109000000000,   4.20000,
,,,0.109040000000,   4.20000,
,,,0.109080000000,   4.20000,
,,,0.109120000000,   4.20000,
,,,0.109160000000,   4.24000,
,,,0.109200000000,   4.24000,
,,,0.109240000000,   4.24000,
,,,0.109280000000,   4.24000,
,,,0.109320000000,   4.24000,
,,,0.109360000000,   4.24000,
,,,0.109400000000,   4.28000,
,,,0.109440000000,   4.24000,
,,,0.109480000000,   4.28000,
,,,0.109520000000,   4.28000,
,,,0.109560000000,   4.24000,
,,,0.109600000000,   4.28000,
,,,0.109640000000,   4.28000,
,,,0.109680000000,   4.28000,
,,,0.109720000000,   4.28000,
,,,0.109760000000,   4.32000,
,,,0.109800000000,   4.28000,
,,,0.109840000000,   4.32000,
,,,0.109880000000,   4.32000,
,,,0.109920000000,   4.32000,
,,,0.109960000000,   4.32000,
,,,0.110000000000,   4.32000,
,,,0.110040000000,   4.32000,
,,,0.110080000000,   4.32000,
,,,0.110120000000,   4.36000,
,,,0.110160000000,   4.32000,
,,,0.110200000000,   4.32000,
,,,0.110240000000,   4.36000,
,,,0.110280000000,   4.36000,
,,,0.110320000000,   4.32000,
,,,0.110360000000,   4.36000,
,,,0.110400000000,   4.36000,
,,,0.110440000000,   4.36000,
,,,0.110480000000,   4.36000,
,,,0.110520000000,   4.40000,
,,,0.110560000000,   4.36000,
,,,0.110600000000,   4.36000,
,,,0.110640000000,   4.40000,
,,,0.110680000000,   4.40000,
,,,0.110720000000,   4.40000,
,,,0.110760000000,   4.44000,
,,,0.110800000000,   4.44000,
,,,0.110840000000,   4.40000,
,,,0.110880000000,   4.40000,
,,,0.110920000000,   4.40000,
,,,0.110960000000,   4.44000,
,,,0.111000000000,   4.44000,
,,,0.111040000000,   4.40000,
,,,0.111080000000,   4.44000,
,,,0.111120000000,   4.44000,
,,,0.111160000000,   4.48000,
,,,0.111200000000,   4.44000,
,,,0.111240000000,   4.48000,
,,,0.111280000000,   4.48000,
,,,0.111320000000,   4.48000,
,,,0.111360000000,   4.48000,
,,,0.111400000000,   4.48000,
,,,0.111440000000,   4.48000,
,,,0.111480000000,   4.48000,
,,,0.111520000000,   4.48000,
,,,0.111560000000,   4.48000,
,,,0.111600000000,   4.48000,
,,,0.111640000000,   4.48000,
,,,0.111680000000,   4.48000,
,,,0.111720000000,   4.48000,
,,,0.111760000000,   4.52000,
,,,0.111800000000,   4.52000,
,,,0.111840000000,   4.48000,
,,,0.111880000000,   4.52000,
,,,0.111920000000,   4.52000,
,,,0.111960000000,   4.56000,
,,,0.112000000000,   4.52000,
,,,0.112040000000,   4.52000,
,,,0.112080000000,   4.52000,
,,,0.112120000000,   4.56000,
,,,0.112160000000,   4.56000,
,,,0.112200000000,   4.56000,
,,,0.112240000000,   4.56000,
,,,0.112280000000,   4.60000,
,,,0.112320000000,   4.60000,
,,,0.112360000000,   4.56000,
,,,0.112400000000,   4.60000,
,,,0.112440000000,   4.60000,
,,,0.112480000000,   4.60000,
,,,0.112520000000,   4.60000,
,,,0.112560000000,   4.60000,
,,,0.112600000000,   4.60000,
,,,0.112640000000,   4.60000,
,,,0.112680000000,   4.64000,
,,,0.112720000000,   4.60000,
,,,0.112760000000,   4.60000,
,,,0.112800000000,   4.64000,
,,,0.112840000000,   4.64000,
,,,0.112880000000,   4.64000,
,,,0.112920000000,   4.64000,
,,,0.112960000000,   4.64000,
,,,0.113000000000,   4.64000,
,,,0.113040000000,   4.64000,
,,,0.113080000000,   4.64000,
,,,0.113120000000,   4.68000,
,,,0.113160000000,   4.68000,
,,,0.113200000000,   4.68000,
,,,0.113240000000,   4.68000,
,,,0.113280000000,   4.68000,
,,,0.113320000000,   4.72000,
,,,0.113360000000,   4.68000,
,,,0.113400000000,   4.72000,
,,,0.113440000000,   4.72000,
,,,0.113480000000,   4.68000,
,,,0.113520000000,   4.72000,
,,,0.113560000000,   4.72000,
,,,0.113600000000,   4.72000,
,,,0.113640000000,   4.72000,
,,,0.113680000000,   4.72000,
,,,0.113720000000,   4.72000,
,,,0.113760000000,   4.72000,
,,,0.113800000000,   4.76000,
,,,0.113840000000,   4.76000,
,,,0.113880000000,   4.76000,
,,,0.113920000000,   4.76000,
,,,0.113960000000,   4.76000,
,,,0.114000000000,   4.76000,
,,,0.114040000000,   4.80000,
,,,0.114080000000,   4.76000,
,,,0.114120000000,   4.80000,
,,,0.114160000000,   4.76000,
,,,0.114200000000,   4.80000,
,,,0.114240000000,   4.80000,
,,,0.114280000000,   4.80000,
,,,0.114320000000,   4.76000,
,,,0.114360000000,   4.80000,
,,,0.114400000000,   4.80000,
,,,0.114440000000,   4.80000,
,,,0.114480000000,   4.80000,
,,,0.114520000000,   4.84000,
,,,0.114560000000,   4.84000,
,,,0.114600000000,   4.84000,
,,,0.114640000000,   4.84000,
,,,0.114680000000,   4.84000,
,,,0.114720000000,   4.84000,
,,,0.114760000000,   4.84000,
,,,0.114800000000,   4.88000,
,,,0.114840000000,   4.88000,
,,,0.114880000000,   4.84000,
,,,0.114920000000,   4.88000,
,,,0.114960000000,   4.88000,
,,,0.115000000000,   4.88000,
,,,0.115040000000,   4.88000,
,,,0.115080000000,   4.88000,
,,,0.115120000000,   4.88000,
,,,0.115160000000,   4.88000,
,,,0.115200000000,   4.88000,
,,,0.115240000000,   4.88000,
,,,0.115280000000,   4.88000,
,,,0.115320000000,   4.88000,
,,,0.115360000000,   4.84000,
,,,0.115400000000,   4.84000,
,,,0.115440000000,   4.84000,
,,,0.115480000000,   4.80000,
,,,0.115520000000,   4.84000,
,,,0.115560000000,   4.80000,
,,,0.115600000000,   4.84000,
,,,0.115640000000,   4.84000,
,,,0.115680000000,   4.84000,
,,,0.115720000000,   4.80000,
,,,0.115760000000,   4.80000,
,,,0.115800000000,   4.80000,
,,,0.115840000000,   4.80000,
,,,0.115880000000,   4.80000,
,,,0.115920000000,   4.76000,
,,,0.115960000000,   4.76000,
,,,0.116000000000,   4.76000,
,,,0.116040000000,   4.76000,
,,,0.116080000000,   4.76000,
,,,0.116120000000,   4.76000,
,,,0.116160000000,   4.76000,
,,,0.116200000000,   4.76000,
,,,0.116240000000,   4.76000,
,,,0.116280000000,   4.76000,
,,,0.116320000000,   4.76000,
,,,0.116360000000,   4.72000,
,,,0.116400000000,   4.76000,
,,,0.116440000000,   4.72000,
,,,0.116480000000,   4.72000,
,,,0.116520000000,   4.72000,
,,,0.116560000000,   4.72000,
,,,0.116600000000,   4.72000,
,,,0.116640000000,   4.72000,
,,,0.116680000000,   4.72000,
,,,0.116720000000,   4.68000,
,,,0.116760000000,   4.72000,
,,,0.116800000000,   4.68000,
,,,0.116840000000,   4.68000,
,,,0.116880000000,   4.68000,
,,,0.116920000000,   4.68000,
,,,0.116960000000,   4.68000,
,,,0.117000000000,   4.64000,
,,,0.117040000000,   4.64000,
,,,0.117080000000,   4.64000,
,,,0.117120000000,   4.68000,
,,,0.117160000000,   4.64000,
,,,0.117200000000,   4.64000,
,,,0.117240000000,   4.64000,
,,,0.117280000000,   4.64000,
,,,0.117320000000,   4.64000,
,,,0.117360000000,   4.64000,
,,,0.117400000000,   4.60000,
,,,0.117440000000,   4.64000,
,,,0.117480000000,   4.60000,
,,,0.117520000000,   4.60000,
,,,0.117560000000,   4.60000,
,,,0.117600000000,   4.60000,
,,,0.117640000000,   4.60000,
,,,0.117680000000,   4.60000,
,,,0.117720000000,   4.60000,
,,,0.117760000000,   4.60000,
,,,0.117800000000,   4.56000,
,,,0.117840000000,   4.56000,
,,,0.117880000000,   4.56000,
,,,0.117920000000,   4.56000,
,,,0.117960000000,   4.56000,
,,,0.118000000000,   4.56000,
,,,0.118040000000,   4.56000,
,,,0.118080000000,   4.56000,
,,,0.118120000000,   4.56000,
,,,0.118160000000,   4.56000,
,,,0.118200000000,   4.52000,
,,,0.118240000000,   4.52000,
,,,0.118280000000,   4.52000,
,,,0.118320000000,   4.52000,
,,,0.118360000000,   4.48000,
,,,0.118400000000,   4.48000,
,,,0.118440000000,   4.52000,
,,,0.118480000000,   4.48000,
,,,0.118520000000,   4.48000,
,,,0.118560000000,   4.48000,
,,,0.118600000000,   4.48000,
,,,0.118640000000,   4.48000,
,,,0.118680000000,   4.48000,
,,,0.118720000000,   4.48000,
,,,0.118760000000,   4.48000,
,,,0.118800000000,   4.48000,
,,,0.118840000000,   4.48000,
,,,0.118880000000,   4.48000,
,,,0.118920000000,   4.48000,
,,,0.118960000000,   4.44000,
,,,0.119000000000,   4.44000,
,,,0.119040000000,   4.44000,
,,,0.119080000000,   4.44000,
,,,0.119120000000,   4.44000,
,,,0.119160000000,   4.44000,
,,,0.119200000000,   4.44000,
,,,0.119240000000,   4.44000,
,,,0.119280000000,   4.44000,
,,,0.119320000000,   4.44000,
,,,0.119360000000,   4.40000,
,,,0.119400000000,   4.40000,
,,,0.119440000000,   4.40000,
,,,0.119480000000,   4.40000,
,,,0.119520000000,   4.40000,
,,,0.119560000000,   4.40000,
,,,0.119600000000,   4.40000,
,,,0.119640000000,   4.36000,
,,,0.119680000000,   4.36000,
,,,0.119720000000,   4.36000,
,,,0.119760000000,   4.36000,
,,,0.119800000000,   4.36000,
,,,0.119840000000,   4.36000,
,,,0.119880000000,   4.36000,
,,,0.119920000000,   4.32000,
,,,0.119960000000,   4.36000,
,,,0.120000000000,   4.36000,
,,,0.120040000000,   4.32000,
,,,0.120080000000,   4.32000,
,,,0.120120000000,   4.32000,
,,,0.120160000000,   4.32000,
,,,0.120200000000,   4.32000,
,,,0.120240000000,   4.32000,
,,,0.120280000000,   4.32000,
,,,0.120320000000,   4.32000,
,,,0.120360000000,   4.32000,
,,,0.120400000000,   4.32000,
,,,0.120440000000,   4.32000,
,,,0.120480000000,   4.28000,
,,,0.120520000000,   4.28000,
,,,0.120560000000,   4.28000,
,,,0.120600000000,   4.28000,
,,,0.120640000000,   4.28000,
,,,0.120680000000,   4.28000,
,,,0.120720000000,   4.28000,
,,,0.120760000000,   4.24000,
