graph {
0 [label=8];
1 [label=5];
2 [label=6];
3 [label=3];
4 [label=4];
5 [label=4];
6 [label=3];
7 [label=2];
8 [label=1];
9 [label=2];
10 [label=1];

0 -- 1;
0 -- 2;
1 -- 3;
1 -- 4;
2 -- 5;
2 -- 6;
3 -- 7;
3 -- 8;
4 -- 9;
4 -- 10;
}