Version 4
SHEET 1 1184 680
WIRE 672 -64 544 -64
WIRE 800 -64 672 -64
WIRE 672 -16 672 -64
WIRE 800 -16 800 -64
WIRE 544 80 544 -64
WIRE 800 80 800 64
WIRE 672 128 672 64
WIRE 736 128 672 128
WIRE 672 224 672 128
WIRE 800 224 800 176
WIRE 544 352 544 112
WIRE 672 352 672 304
WIRE 672 352 544 352
WIRE 800 352 800 304
WIRE 800 352 672 352
FLAG 672 352 0
DATAFLAG 544 -64 ""
DATAFLAG 672 128 ""
DATAFLAG 800 -64 "I(R6)"
SYMBOL npn 736 80 R0
SYMATTR InstName Q2
SYMATTR Value BC548C
SYMBOL res 656 -32 R0
SYMATTR InstName R5
SYMATTR Value 1500
SYMBOL res 784 -32 R0
SYMATTR InstName R6
SYMATTR Value 2k
SYMBOL LargeCollection\\LTspiceIV\\examples\\LtSpicePlus\\Analisis\\Meas\\Measurement\ of\ Subcircuits\\voltage_0 544 64 R0
WINDOW 123 0 0 Left 0
WINDOW 39 0 0 Left 0
SYMATTR InstName V2
SYMATTR Value 12
SYMBOL res 784 208 R0
SYMATTR InstName R1
SYMATTR Value 2k
SYMBOL res 656 208 R0
SYMATTR InstName R2
SYMATTR Value 1000
TEXT 128 280 Left 2 !.tran 1
TEXT 816 72 Left 2 ;7.8668V
TEXT 808 200 Left 2 ;4.1428V
