Circuit: * Z:\home\benitez\Documents\01 - Disciplinas específicas\01 - Analógica\05 - Estruturas amplificadoras\Proj 06 - Subwoofer\Simulação.asc

Direct Newton iteration for .op point succeeded.

Date: Mon Jul 01 08:32:08 2019
Total elapsed time: 0.273 seconds.

tnom = 27
temp = 27
method = modified trap
totiter = 2109
traniter = 2088
tranpoints = 1045
accept = 1045
rejected = 0
matrix size = 29
fillins = 43
solver = Normal
Matrix Compiler1: 3.60 KB object code size  3.8/3.2/[2.2]
Matrix Compiler2: 3.02 KB object code size  2.8/2.7/[2.5]

