main.c:50:6:vTask_LCD_Print	8	static
main.c:56:6:vTask_Nr_Print	16	static
main.c:39:6:HAL_ADC_ConvCpltCallback	0	static
main.c:195:6:SystemClock_Config	96	static
main.c:80:5:main	64	static
main.c:376:6:HAL_TIM_PeriodElapsedCallback	0	static
main.c:395:6:_Error_Handler	0	static
