Location;Value
0.226354800379281;S1
0.417417417417417;S2
0.752476768828422;S1
0.932948839401092;S2
1.26330449400869;S1
1.43765886727381;S2
1.77719106784274;S1
1.94542774380031;S2
2.28190109571546;S1
2.44707892301926;S2
2.77437572897308;S1
2.95178895089198;S2
3.26685036223071;S1
3.44144144144144;S2
3.74474474474474;S1
3.93367936875346;S2
4.21321321321321;S1
4.38333012085825;S2
4.68768768768769;S1
4.85285285285285;S2
5.15615615615616;S1
5.33333333333333;S2
5.61261261261261;S1
5.79040050159432;S2
6.06606606606607;S1
6.23393355639156;S2
6.512288783885;S1
6.68768768768769;S2
6.95795795795796;S1
7.11711711711712;S2
7.37537537537538;S1
7.54654654654655;S2
7.81381381381381;S1
7.98798798798799;S2
8.23423423423423;S1
8.4094808373758;S2
8.66366366366366;S1
8.84077849755794;S2
9.09479739070707;S1
9.27027027027027;S2
9.52852852852853;S1
9.70570570570571;S2
9.96096096096096;S1
10.1351351351351;S2
10.3933933933934;S1
10.5735735735736;S2
10.8378378378378;S1
11.024024024024;S2
11.2818741781555;S1
11.4654654654655;S2
11.7297297297297;S1
11.9189189189189;S2
12.1711711711712;S1
12.3645721467057;S2
12.6216216216216;S1
12.8228228228228;S2
13.0630630630631;S1
13.2432432432432;S2
13.5056571494493;S1
13.6996996996997;S2
13.954954954955;S1
14.1501501501502;S2
14.4024024024024;S1
14.5852962693456;S2
14.8546094057636;S1
15.048048048048;S2
15.3213213213213;S1
15.5045045045045;S2
15.7747747747748;S1
15.960960960961;S2
16.2162162162162;S1
16.4024024024024;S2
16.6726726726727;S1
16.8558558558559;S2
17.1201201201201;S1
17.3063063063063;S2
17.5705705705706;S1
17.7537537537538;S2
18.012012012012;S1
18.2012012012012;S2
18.4487565739482;S1
18.6260353409812;S2
18.8888888888889;S1
19.0720720720721;S2
19.3183183183183;S1
19.5015015015015;S2
19.7417417417417;S1
19.9369369369369;S2
20.1861861861862;S1
20.3633633633634;S2
20.6036036036036;S1
20.7807807807808;S2
21.024024024024;S1
21.201585907459;S2
21.4414414414414;S1
21.6126126126126;S2
21.8588588588589;S1
22.0366515899393;S2
22.2723173911658;S1
22.4684684684685;S2
22.7117117117117;S1
22.8978978978979;S2
23.1411411411411;S1
23.3274857218319;S2
23.5675675675676;S1
23.7567567567568;S2
24;S1
24.1816103843858;S2
24.4234234234234;S1
24.6190257418755;S2
24.8662210495662;S1
25.0564410993652;S2
25.3036364070559;S1
25.4938564568549;S2
25.734934067238;S1
25.9399399399399;S2
26.1771771771772;S1
26.3513513513514;S2
26.6096096096096;S1
26.8018018018018;S2
27.045045045045;S1
27.2404590381599;S2
27.4834834834835;S1
27.6748155469958;S2
27.9219219219219;S1
28.1091720558317;S2
28.3663663663664;S1
28.5495495495495;S2
28.8078078078078;S1
28.993993993994;S2
29.2481730078442;S1
29.4354354354354;S2
29.6966966966967;S1
29.8833042750207;S2
30.1411411411411;S1
30.3183183183183;S2
30.5940664155048;S1
30.785664627884;S2
31.0559525622246;S1
31.2383742286426;S2
31.5105105105105;S1
31.6996996996997;S2
31.966966966967;S1
32.1501501501502;S2
32.4084084084084;S1
32.6066066066066;S2
32.8738738738739;S1
33.0660660660661;S2
33.3333333333333;S1
33.5195195195195;S2
33.7897897897898;S1
33.966966966967;S2
34.2522522522523;S1
34.4379299204902;S2
34.7117117117117;S1
34.8936983699026;S2
35.1771771771772;S1
35.3603603603604;S2
35.6396396396396;S1
35.8258258258258;S2
36.0960960960961;S1
36.2942942942943;S2
36.5435435435435;S1
36.7153940049717;S2
36.9931777992001;S1
37.1833978489991;S2
37.4474474474474;S1
37.6299897524501;S2
37.8948948948949;S1
38.0750750750751;S2
38.3363363363363;S1
38.5201147106984;S2
38.7747747747748;S1
38.972972972973;S2
39.2102102102102;S1
39.4054054054054;S2
39.6396396396396;S1
39.8408408408408;S2
40.0750750750751;S1
40.2711879169589;S2
40.5045045045045;S1
40.6933090311797;S2
40.9339339339339;S1
41.1184889940543;S2
41.3581548281357;S1
41.5436689569289;S2
41.7986290342792;S1
41.981981981982;S2
42.2391032404227;S1
42.4294294294294;S2
42.6765185979123;S1
42.8768768768769;S2
43.1231105013634;S1
43.3093093093093;S2
43.5758201021219;S1
43.7597597597598;S2
44.027027027027;S1
44.2162162162162;S2
44.4834834834835;S1
44.6726726726727;S2
44.9278312070901;S1
45.1201201201201;S2
45.3774819591949;S1
45.5705705705706;S2
45.8258258258258;S1
46.018018018018;S2
46.2737246147507;S1
46.4654654654655;S2
46.7297297297297;S1
46.9129567559465;S2
47.1822026649216;S1
47.3779017513201;S2
47.6366366366366;S1
47.8275525034249;S2
48.0840840840841;S1
48.2762762762763;S2
48.5279616176963;S1
48.7177177177177;S2
48.975975975976;S1
49.1681681681682;S2
49.4272631219058;S1
49.6292143604979;S2
49.8677373280493;S1
50.0570570570571;S2
50.3153153153153;S1
50.5015015015015;S2
50.7537537537538;S1
50.9399399399399;S2
51.1891599464797;S1
51.3873873873874;S2
51.6246246246246;S1
51.8108108108108;S2
52.0570570570571;S1
52.2449669378538;S2
52.4774774774775;S1
52.6732057493822;S2
52.9129129129129;S1
53.1014445609106;S2
53.3362027916573;S1
53.5285285285285;S2
53.7657657657658;S1
53.954954954955;S2
54.1891891891892;S1
54.3843843843844;S2
54.6096096096096;S1
54.7957957957958;S2
55.033033033033;S1
55.2102102102102;S2
55.4564564564565;S1
55.6456456456456;S2
55.8918918918919;S1
56.0720720720721;S2
56.3213213213213;S1
56.5225225225225;S2
56.7657657657658;S1
56.9459459459459;S2
57.2102102102102;S1
57.3873873873874;S2
57.6486486486486;S1
57.8378378378378;S2
58.1111111111111;S1
58.2972972972973;S2
58.562396978377;S1
58.7489867462572;S2
59.027027027027;S1
59.2102102102102;S2
59.4834834834835;S1
59.6756756756757;S2
59.957957957958;S1
