Replace Part CN2 Phonejack2 in C:\Users\VictorHenrique\Downloads\Proj 1 - Amplificador_de_audio_alfakits\Proj 1 - Amplificador_de_audio_alfakits\main_sheet.SchDoc with Phonejack2 from Miscellaneous Connectors.IntLib
Replace Part P1 RPot SM in C:\Users\VictorHenrique\Downloads\Proj 1 - Amplificador_de_audio_alfakits\Proj 1 - Amplificador_de_audio_alfakits\main_sheet.SchDoc with RPot SM from Miscellaneous Devices.IntLib
Replace Part P2 RPot SM in C:\Users\VictorHenrique\Downloads\Proj 1 - Amplificador_de_audio_alfakits\Proj 1 - Amplificador_de_audio_alfakits\main_sheet.SchDoc with RPot SM from Miscellaneous Devices.IntLib
Replace Part P3 RPot SM in C:\Users\VictorHenrique\Downloads\Proj 1 - Amplificador_de_audio_alfakits\Proj 1 - Amplificador_de_audio_alfakits\main_sheet.SchDoc with RPot SM from Miscellaneous Devices.IntLib
