Added Component: Designator=C3(CAP 10x20)
Add component. Clean all parameters for all variants
Add component (AddParameter): Name = "Voltage"; Value = "25 V"; VariantName = "[No Variations]"
Added Component: Designator=C15(CAP CERA)
Add component. Clean all parameters for all variants
Add component (AddParameter): Name = "LatestRevisionDate"; Value = "17-Jul-2002"; VariantName = "[No Variations]"
Add component (AddParameter): Name = "LatestRevisionNote"; Value = "Re-released for DXP Platform."; VariantName = "[No Variations]"
Add component (AddParameter): Name = "PackageReference"; Value = "RAD-0.3"; VariantName = "[No Variations]"
Add component (AddParameter): Name = "Published"; Value = "8-Jun-2000"; VariantName = "[No Variations]"
Add component (AddParameter): Name = "Publisher"; Value = "Altium Limited"; VariantName = "[No Variations]"
Add component (AddParameter): Name = "Type"; Value = "Poliester"; VariantName = "[No Variations]"
Add component (AddParameter): Name = "Voltage"; Value = "100 V"; VariantName = "[No Variations]"
Added Component: Designator=C19(CAP 16X25)
Add component. Clean all parameters for all variants
Add component (AddParameter): Name = "Type"; Value = ""; VariantName = "[No Variations]"
Add component (AddParameter): Name = "Voltage"; Value = "25 V"; VariantName = "[No Variations]"
Added Component: Designator=CN2(JACK/6-V2)
Add component. Clean all parameters for all variants
Add component (AddParameter): Name = "ComponentLink1Description"; Value = "Manufacturer Link"; VariantName = "[No Variations]"
Add component (AddParameter): Name = "ComponentLink1URL"; Value = "http://www.cliffuk.co.uk/"; VariantName = "[No Variations]"
Add component (AddParameter): Name = "DatasheetDocument"; Value = "2003"; VariantName = "[No Variations]"
Add component (AddParameter): Name = "DrillAndSlotSize"; Value = "Corresponds to nominal value."; VariantName = "[No Variations]"
Add component (AddParameter): Name = "LatestRevisionDate"; Value = "15-Jul-2004"; VariantName = "[No Variations]"
Add component (AddParameter): Name = "LatestRevisionNote"; Value = "Component Replaced."; VariantName = "[No Variations]"
Add component (AddParameter): Name = "PackageDocument"; Value = "2003"; VariantName = "[No Variations]"
Add component (AddParameter): Name = "PackageReference"; Value = "S1VS_SNS"; VariantName = "[No Variations]"
Add component (AddParameter): Name = "PCB_Layout"; Value = "Complies with manufacturer's recommendation."; VariantName = "[No Variations]"
Add component (AddParameter): Name = "Publisher"; Value = "Altium Limited"; VariantName = "[No Variations]"
Added Component: Designator=D1(DO-41)
Add component. Clean all parameters for all variants
Add component (AddParameter): Name = "Forward Current (If)"; Value = "1 A"; VariantName = "[No Variations]"
Add component (AddParameter): Name = "Forward Voltage (Vf)"; Value = "1.1 V"; VariantName = "[No Variations]"
Add component (AddParameter): Name = "Max Recovery Time (trr)"; Value = ""; VariantName = "[No Variations]"
Add component (AddParameter): Name = "Non-Repetitive Peak Forward Surge Current (Ifsm)"; Value = "30 A"; VariantName = "[No Variations]"
Add component (AddParameter): Name = "Peak Repetitive Reverse Voltage (Vrrm)"; Value = "1000 V"; VariantName = "[No Variations]"
Add component (AddParameter): Name = "Reverse Current (Ir)"; Value = "5 uA"; VariantName = "[No Variations]"
Add component (AddParameter): Name = "Total Capacitance (Ct)"; Value = "15 pF"; VariantName = "[No Variations]"
Added Component: Designator=D2(DO-41)
Add component. Clean all parameters for all variants
Add component (AddParameter): Name = "Forward Current (If)"; Value = "1 A"; VariantName = "[No Variations]"
Add component (AddParameter): Name = "Forward Voltage (Vf)"; Value = "1.1 V"; VariantName = "[No Variations]"
Add component (AddParameter): Name = "Max Recovery Time (trr)"; Value = ""; VariantName = "[No Variations]"
Add component (AddParameter): Name = "Non-Repetitive Peak Forward Surge Current (Ifsm)"; Value = "30 A"; VariantName = "[No Variations]"
Add component (AddParameter): Name = "Peak Repetitive Reverse Voltage (Vrrm)"; Value = "1000 V"; VariantName = "[No Variations]"
Add component (AddParameter): Name = "Reverse Current (Ir)"; Value = "5 uA"; VariantName = "[No Variations]"
Add component (AddParameter): Name = "Total Capacitance (Ct)"; Value = "15 pF"; VariantName = "[No Variations]"
Added Component: Designator=D3(DO-41)
Add component. Clean all parameters for all variants
Add component (AddParameter): Name = "Forward Current (If)"; Value = "1 A"; VariantName = "[No Variations]"
Add component (AddParameter): Name = "Forward Voltage (Vf)"; Value = "1.1 V"; VariantName = "[No Variations]"
Add component (AddParameter): Name = "Max Recovery Time (trr)"; Value = ""; VariantName = "[No Variations]"
Add component (AddParameter): Name = "Non-Repetitive Peak Forward Surge Current (Ifsm)"; Value = "30 A"; VariantName = "[No Variations]"
Add component (AddParameter): Name = "Peak Repetitive Reverse Voltage (Vrrm)"; Value = "1000 V"; VariantName = "[No Variations]"
Add component (AddParameter): Name = "Reverse Current (Ir)"; Value = "5 uA"; VariantName = "[No Variations]"
Add component (AddParameter): Name = "Total Capacitance (Ct)"; Value = "15 pF"; VariantName = "[No Variations]"
Added Component: Designator=D4(DO-41)
Add component. Clean all parameters for all variants
Add component (AddParameter): Name = "Forward Current (If)"; Value = "1 A"; VariantName = "[No Variations]"
Add component (AddParameter): Name = "Forward Voltage (Vf)"; Value = "1.1 V"; VariantName = "[No Variations]"
Add component (AddParameter): Name = "Max Recovery Time (trr)"; Value = ""; VariantName = "[No Variations]"
Add component (AddParameter): Name = "Non-Repetitive Peak Forward Surge Current (Ifsm)"; Value = "30 A"; VariantName = "[No Variations]"
Add component (AddParameter): Name = "Peak Repetitive Reverse Voltage (Vrrm)"; Value = "1000 V"; VariantName = "[No Variations]"
Add component (AddParameter): Name = "Reverse Current (Ir)"; Value = "5 uA"; VariantName = "[No Variations]"
Add component (AddParameter): Name = "Total Capacitance (Ct)"; Value = "15 pF"; VariantName = "[No Variations]"
Added Component: Designator=D5(DO-35)
Add component. Clean all parameters for all variants
Add component (AddParameter): Name = "Forward Voltage (Vf)"; Value = "1.2 V"; VariantName = "[No Variations]"
Add component (AddParameter): Name = "Power Dissipation (Pd)"; Value = "1.3 W"; VariantName = "[No Variations]"
Add component (AddParameter): Name = "Zener Current (Iz)"; Value = "76 mA"; VariantName = "[No Variations]"
Add component (AddParameter): Name = "Zener Voltage (Vz)"; Value = "12 V"; VariantName = "[No Variations]"
Added Component: Designator=Led(LED 5MM)
Add component. Clean all parameters for all variants
Added Component: Designator=R3(RES 1K)
Add component. Clean all parameters for all variants
Add component (AddParameter): Name = "LatestRevisionDate"; Value = "17-Jul-2002"; VariantName = "[No Variations]"
Add component (AddParameter): Name = "LatestRevisionNote"; Value = "Re-released for DXP Platform."; VariantName = "[No Variations]"
Add component (AddParameter): Name = "PackageReference"; Value = "AXIAL-0.3"; VariantName = "[No Variations]"
Add component (AddParameter): Name = "Power"; Value = "1/4 W"; VariantName = "[No Variations]"
Add component (AddParameter): Name = "Published"; Value = "8-Jun-2000"; VariantName = "[No Variations]"
Add component (AddParameter): Name = "Publisher"; Value = "Altium Limited"; VariantName = "[No Variations]"
Add component (AddParameter): Name = "Tolerance"; Value = "5%"; VariantName = "[No Variations]"
Added Component: Designator=R6(RES 1K)
Add component. Clean all parameters for all variants
Add component (AddParameter): Name = "LatestRevisionDate"; Value = "17-Jul-2002"; VariantName = "[No Variations]"
Add component (AddParameter): Name = "LatestRevisionNote"; Value = "Re-released for DXP Platform."; VariantName = "[No Variations]"
Add component (AddParameter): Name = "PackageReference"; Value = "AXIAL-0.3"; VariantName = "[No Variations]"
Add component (AddParameter): Name = "Power"; Value = "1/4 W"; VariantName = "[No Variations]"
Add component (AddParameter): Name = "Published"; Value = "8-Jun-2000"; VariantName = "[No Variations]"
Add component (AddParameter): Name = "Publisher"; Value = "Altium Limited"; VariantName = "[No Variations]"
Add component (AddParameter): Name = "Tolerance"; Value = "5%"; VariantName = "[No Variations]"
Added Pin To Net: NetName=GND Pin=C3-2
Added Pin To Net: NetName=GND Pin=C15-1
Added Pin To Net: NetName=GND Pin=C19-2
Added Pin To Net: NetName=GND Pin=CN2-5
Added Pin To Net: NetName=GND Pin=D3-A
Added Pin To Net: NetName=GND Pin=D4-A
Added Pin To Net: NetName=GND Pin=D5-A
Added Pin To Net: NetName=GND Pin=Led-K
Added Net: Name=GND
Added Net: Name=NetC1_1
Added Net: Name=NetC1_2
Added Net: Name=NetC2_1
Added Net: Name=NetC4_1
Added Net: Name=NetC4_2
Added Net: Name=NetC5_1
Added Net: Name=NetC6_1
Added Net: Name=NetC7_1
Added Net: Name=NetC7_2
Added Net: Name=NetC8_1
Added Net: Name=NetC9_1
Added Net: Name=NetC9_2
Added Net: Name=NetC10_1
Added Net: Name=NetC10_2
Added Net: Name=NetC11_2
Added Net: Name=NetC16_1
Added Net: Name=NetC16_2
Added Net: Name=NetC17_1
Added Net: Name=NetC18_1
Added Net: Name=NetC20_1
Added Net: Name=NetC21_1
Added Net: Name=NetC22_1
Added Net: Name=NetC22_2
Added Net: Name=NetC23_1
Added Net: Name=NetC23_2
Added Net: Name=NetC24_1
Added Pin To Net: NetName=NetCN2_1 Pin=CN2-1
Added Net: Name=NetCN2_1
Added Pin To Net: NetName=NetCN4_1 Pin=D1-A
Added Pin To Net: NetName=NetCN4_1 Pin=D4-K
Added Net: Name=NetCN4_1
Added Pin To Net: NetName=NetCN4_2 Pin=D2-A
Added Pin To Net: NetName=NetCN4_2 Pin=D3-K
Added Net: Name=NetCN4_2
Added Pin To Net: NetName=NetLed_A Pin=Led-A
Added Pin To Net: NetName=NetLed_A Pin=R6-1
Added Net: Name=NetLed_A
Added Net: Name=NetQ1_C
Added Net: Name=NetR8_1
Added Net: Name=VCC 1
Added Pin To Net: NetName=VCC1 Pin=C15-2
Added Pin To Net: NetName=VCC1 Pin=C19-1
Added Pin To Net: NetName=VCC1 Pin=D1-K
Added Pin To Net: NetName=VCC1 Pin=D2-K
Added Pin To Net: NetName=VCC1 Pin=R3-2
Added Pin To Net: NetName=VCC1 Pin=R6-2
Added Net: Name=VCC1
Added Net: Name=VCC 2
Added Pin To Net: NetName=VCC2 Pin=C3-1
Added Pin To Net: NetName=VCC2 Pin=D5-K
Added Pin To Net: NetName=VCC2 Pin=R3-1
Added Net: Name=VCC2
Added Class: Name=main_sheet
Added Room: Name=main_sheet
