Change Component Footprint: Designator=Q1 Old Footprint=TO-92 New Footprint=TO-92-CBE
Added Pin To Net: NetName=NetC2_1 Pin=Q1-B
Added Pin To Net: NetName=NetQ1_C Pin=Q1-C
Added Pin To Net: NetName=NetC5_1 Pin=Q1-E
