Added Pin To Net: NetName=NetC11_2 Pin=P1-1
Added Pin To Net: NetName=NetC7_1 Pin=P1-2
Added Pin To Net: NetName=NetC6_1 Pin=P1-3
Added Pin To Net: NetName=NetC8_1 Pin=P2-1
Added Pin To Net: NetName=NetC7_1 Pin=P2-2
Added Pin To Net: NetName=NetC7_2 Pin=P2-3
Added Pin To Net: NetName=GND Pin=P3-1
Added Pin To Net: NetName=NetC16_2 Pin=P3-2
Added Pin To Net: NetName=NetC7_1 Pin=P3-3
